24859.985809246	Microsoft Internet Explorer 11
6105.09844111762	Google Chrome 45.0
40.4841842581641	Google Chrome 30.0
10.6987021784476	UC Browser 10.10.8
249.300482574201	Safari 10.0.3
1626.81870840521	Microsoft Edge 14
4.28345491835434	UC Browser 11.4.2
6.05474442733586	MIUI Browser 8.5.14
0.281021893251875	Opera Mini 7.6.35766/37
1.63219786484675	Opera Mini 21.0.2254/37
0.0908353594349496	BlackBerry Browser 6.0.0
0.550689366574382	UC Browser 9.7.5
0.545012156609697	Samsung Browser 3.4
0.210056768693321	Safari 7.1.6
0.0255474448410796	Chrome Mobile 41.99900.2250
0.0454176797174748	Opera Mini 7.5.35199/62
0.255474448410796	Yandex.Browser 16.9.1
0.0709651245585543	Opera Mini 7.5.33901/37
0.0227088398587374	Opera 9.2
0.0596107046291857	Opera Mini 4.2.13337/37
0.0567720996468435	Opera Mini 7.5.33725/59
0.0936739644172917	Android Browser 5.0.2
0.00851581494702652	Opera Mini 7.0.30639/37
0.0454176797174748	Opera Mini 7.1.32453/60
0.00567720996468435	Opera Mini 4.2.22228/60
0.017031629894053	Mozilla Firefox 1.5.0.1
0.0113544199293687	Opera Mini 10.2.0/37
0.0113544199293687	Opera Mini 12.1.1/37
0.00851581494702652	Opera Mini 8.0.40325/64
0.00567720996468435	Chrome Mobile 57.0.2926
0.0113544199293687	Puffin 5.2.1
0.0397404697527904	Opera Mini 10.0.1884/59
0.017031629894053	UC Browser 9.6.2
0.00283860498234217	Opera Mini 4.2.22537/63
0.107866989329003	Yandex.Browser 17.4.2
0.00567720996468435	Opera Mini 4.1.13907/63
0.0510948896821591	Chrome Mobile 60.0.3087
0.00567720996468435	Opera Mini 7.1.33680/37
0.00283860498234217	Chrome Mobile 55.0.2874
0.00283860498234217	UC Browser 9.7.1
0.00851581494702652	Opera Mini 7.6.40251/62
0.00283860498234217	Opera Mini 7.0.29952/58
0.017031629894053	Opera Mini 6.5.31743/37
0.00567720996468435	Opera Mini 7.6.40125/62
0.00283860498234217	Opera Mini 7.5.35188/59
0.00283860498234217	Nokia S60 Browser 8.2.1
0.00283860498234217	Netscape Navigator 4.75
698.708423378614	Safari 9.0
13.9716137230882	360 Secure Browser
10.2558798012023	Internet Explorer 11.0
244.264797335526	Chrome Mobile 57.0.2987
12.8929438297981	Google Chrome 27.0
6.51743703945763	Mozilla Firefox 25.0
2.83576637735983	Opera Mini 7.5.33361/37
2.02108674742763	MIUI Browser 1.0
0.0510948896821591	Chrome Mobile 61.0.3116
0.017031629894053	Opera Mini 14.0.0/63
4.02230325997886	UC Browser 11.5.0
3.89172743079112	Edge 15.15063
4.50770471195937	Samsung Browser 3.0
0.374695857669167	Safari 6.0
0.2356042135344	MIUI Browser 8.1.8
0.513787501803934	Netscape Navigator 3.0
0.499594476892223	Amazon Silk 51.3.4
0.263990263357822	UC Browser 2.8.8
0.215733978658005	MIUI Browser 8.2.9
0.00283860498234217	Opera Mini 7.0.29703/37
0.0794809395055809	UC Browser 9.9.1
0.204379558728637	Safari 7.1.4
0.0283860498234217	Opera Mini 14.0.2065/61
0.06528791459387	Opera Mini 7.5.33725/61
0.136253039152424	Opera Mobile 22.0.1485
0.017031629894053	Opera Mini 8.0.35667/59
0.00851581494702652	UC Browser 9.4.2
0.0113544199293687	Opera Mini 7.0.31382/60
0.210056768693321	Firefox 7.1
0.0113544199293687	Opera Mini 4.2/37.8743
0.00283860498234217	Opera Mini 7.5.35114/65
0.147607459081793	Firefox 26.0
0.422952142368984	Safari 3.0.3
0.00567720996468435	Opera Mini 6.1.25570/37
0.00283860498234217	Opera Mini 17.0.2211/64
0.00567720996468435	Opera Mini 4.2.24721/62
0.0113544199293687	Chrome Mobile 54.0.2833
0.017031629894053	Opera Mini 4.2.22537/58
0.00283860498234217	Chrome Mobile 54.0.2829
0.00567720996468435	Chrome Mobile 58.0.2994
0.017031629894053	Edge 15.14955
0.0340632597881061	Opera Mini 8.0.35626/65
0.00851581494702652	Opera Mini 6.5.29700/37
0.00283860498234217	Edge 14.14322
0.00283860498234217	Opera Mini 7.0.30011/37
0.00283860498234217	Opera Mini 7.5.35263/65
0.00567720996468435	Opera Mini 7.0.32026/57
0.00283860498234217	UC Browser 9.0.0
0.00567720996468435	Opera Mini 7.5.35602/62
0.00283860498234217	Opera Mini 7.5.35702/58
0.00283860498234217	Chrome Mobile 55.0.2843
3.58231948771582	Mozilla Firefox 23.0
0.650040540956358	Android Browser 4.1
15.5328464633764	Google Chrome 32.0
133.760743977928	Google Chrome 44.0
3991.6889052443	Google Chrome 54.0
3.1565287403645	Opera Mobile 4.0
2.47242493962003	Mozilla Firefox 15.0
9.06082710363622	MIUI Browser 8.2.15
27.068937111615	Mobile Safari 6.0
6.636658448716	MIUI Browser 8.1.4
0.06528791459387	Opera Mini 4.5.40312/64
0.661394960885726	Amazon Silk 58.3.1
0.837388469790941	Opera Mobile 41.2.2246
0.295214918163586	Opera Mobile 41.3.2246
0.647201935974016	UC Browser 10.8.5
0.00851581494702652	Opera Mini 7.1.32830/37
0.00851581494702652	UC Browser 8.2.1
0.00567720996468435	Opera Mini 7.5.31657/57
0.17031629894053	Edge 14.14905
0.232765608552058	Firefox 5.1
0.414436327421957	UC Browser 10.4.2
0.164639088975846	Opera Mini 24.0.2254/60
0.153284669046477	Yandex.Browser 16.2.0
5.95255464797154	UC Browser 11.5.1
0.00283860498234217	Safari 8.2
0.17031629894053	Yandex.Browser 15.10.2454
0.0567720996468435	Opera Mini 7.5.35199/58
0.0851581494702652	Opera Mini 20.0.2254/59
0.445660982227721	Amazon Silk 57.2.2
0.0227088398587374	Opera Mini 8.0.40325/59
0.00567720996468435	Chrome Mobile 56.0.2896
0.0227088398587374	Opera Mini 4.2.23449/61
0.479724242015827	UC Browser 3.0.1
0.00851581494702652	Opera Mini 4.2.13221/60
0.139091644134767	Chrome Mobile 55.0.2880
0.0113544199293687	Chrome Mobile 57.0.2978
0.00283860498234217	Opera Mini 8.0.35840/61
0.0198702348763952	Firefox 22.0
0.0738037295408965	Opera Mobile 20.0.1396
0.00283860498234217	Opera Mini 7.1.32830/63
0.00283860498234217	Opera Mini 8.0.35840/57
0.00283860498234217	Opera Mini 18.0.1290/57
0.017031629894053	Opera Mini 19.0.1340/65
0.00851581494702652	Opera Mini 4.5.40318/59
0.00283860498234217	Chrome Mobile 51.0.2693
0.00283860498234217	Opera Mini 4.2.15304
0.00567720996468435	Yandex.Browser 16.11.1
0.00283860498234217	Firefox 1.1.0
0.00283860498234217	Chrome Mobile 56.0.2920
0.00283860498234217	Opera Mini 6.5.27025/37
0.00283860498234217	Chrome Mobile 56.0.2897
0.00283860498234217	Microsoft Internet Explorer 4.01
26.2514188767004	Mozilla Firefox 16.0
5.43308993620292	Safari 8.0.6
1.6492294947408	MIUI Browser 2.0.1
0.317923758022323	Safari 10.
0.425790747351326	Chrome Mobile 45.0.2311
1.60665042000567	MIUI Browser 8.5.9
36.2745330693506	Samsung Browser 5.4
0.00851581494702652	Opera Mini 4.2.20464/63
0.00567720996468435	Opera Mini 5.1.24639/64
0.485401451980512	Other
0.445660982227721	Firefox 5.0
0.298053523145928	Amazon Silk 3.70
0.417274932404299	Edge 15.14965
0.00283860498234217	Yandex.Browser 1.20.1364
0.00851581494702652	Chrome Mobile 55.0.2853
0.0709651245585543	Amazon Silk 3.62
0.00283860498234217	Opera Mini 7.5.31684/62
1.76845090399917	MIUI Browser 8.5.8
0.334955387916377	Opera Mini 21.0.2254/60
0.0198702348763952	Chrome Mobile 60.0.3076
0.0510948896821591	MIUI Browser 8.4.3
0.633008911062305	Yandex.Browser 16.11.0
0.0227088398587374	Google Chrome 0.2
0.0369018647704483	Opera Mini 4.0.15081/37
0.00283860498234217	Opera Mini 7.0.31647/37
0.0113544199293687	Opera Mini 4.2.20464/62
0.0141930249117109	Opera Mini 7.5.35613/61
0.00283860498234217	Opera Mini 22.0.2254/65
0.0113544199293687	Opera Mini 26.0.2254/63
0.0141930249117109	UC Browser 10.1.1
0.00283860498234217	Chrome Mobile 54.0.2814
0.00851581494702652	UC Browser 3.5.0
0.00567720996468435	Opera Mini 7.7.40394/58
0.00567720996468435	Opera Mini 8.0.40325/58
0.00567720996468435	Chrome Mobile 57.0.2939
0.0425790747351326	Opera Mini 18.0.2254/62
0.0113544199293687	Chrome Mobile 40.0.2184
0.0227088398587374	Opera Mini 7.7.40394/60
0.00283860498234217	Opera Mini 7.6.35843/60
0.0141930249117109	Opera Mini 13.0.2036/64
0.0198702348763952	Opera Mini 6.5.27431/61
0.0340632597881061	Chrome Mobile 55.4.2883
0.00283860498234217	Opera Mini 4.5.40318/58
0.00567720996468435	Opera Mini 4.5.40312/65
0.0113544199293687	UC Browser 2.4.3
0.00567720996468435	Opera Mini 7.6.32888/37
0.00283860498234217	Opera Mini 7.1.33553/58
0.0113544199293687	Opera Mini 7.0.28879/59
0.00283860498234217	Nokia S60 Browser 7.2.7
0.00567720996468435	Opera Mini 4.2.20457/63
0.00283860498234217	Opera Mini 7.1.32448/62
0.00283860498234217	Opera Mini 7.1.32454/37
0.00283860498234217	Opera Mini 4.3.13337/57
0.00567720996468435	Chrome Mobile 60.0.3082
0.00283860498234217	Opera Mini 7.5.32551/61
0.00567720996468435	Mozilla Firefox 1.5
0.0113544199293687	Chrome Mobile 54.0.2823
0.00567720996468435	Opera Mini 8.0.35840/64
0.00283860498234217	Opera Mobile 37.5.2192
0.00283860498234217	Opera Mini 7.6.40125/57
0.00567720996468435	Opera Mini 7.0.3/37
0.00567720996468435	Nokia S60 Browser 7.2.8
0.00283860498234217	Chrome Mobile 52.0.2623
0.00283860498234217	Opera Mini 7.1.32453/65
0.00283860498234217	Opera Mini 7.5.33901/58
0.0198702348763952	Opera Mini 6.5.26969/37
197.981343098437	Google Chrome 31.0
1.06731547336066	UC Browser 10.9.5
7.75223020677648	Mozilla Firefox 19.0
46.7291152193169	Mobile Safari 7.0
0.647201935974016	Opera Mini 14.0.2065/37
0.136253039152424	Chrome Mobile 54.0.2830
0.317923758022323	UC Browser 11.4.10
1.65490670470549	Opera Mobile 34.0.2044
316.067310363872	Mozilla Firefox 54.0
0.00567720996468435	NetFront Life
0.241281423499085	Opera Mini 7.5.33361/60
1.54987832035883	Safari 5.0.4
0.0596107046291857	Safari 6.2.3
0.0965125693996339	MIUI Browser 8.7.2
0.332116782934034	UC Browser 10.9.3
0.00283860498234217	Chrome Mobile 57.0.2973
0.283860498234217	Chrome Mobile 40.0.0
0.00567720996468435	Opera Mini 6.5.26955/37
0.00283860498234217	Opera Mini 4.4.31891/37
0.00283860498234217	Opera Mini 7.5.31658/62
0.00567720996468435	Opera Mini 5.0.16823/60
0.0369018647704483	Opera Mini 11.0.1912/62
0.017031629894053	Opera Mini 8.0.35180/58
0.13057582918774	Opera Mobile 37.2.2192
0.06528791459387	Opera Mini 12.0.1987/61
0.0397404697527904	Opera Mini 6.1.27412/61
0.0255474448410796	Opera Mini 7.6.40099/37
0.0567720996468435	Opera Mini 25.0.2254/63
0.116382804276029	Safari 6.2.7
0.0340632597881061	Nokia S60 Browser 8.3.1
0.0198702348763952	UC Browser 8.8.1
0.017031629894053	Opera Mini 7.5.34235/37
0.00567720996468435	Opera Mini 7.5.34052/60
0.00283860498234217	Chrome Mobile 54.0.2817
0.00567720996468435	Opera Mini 8.0.35763/37
0.00567720996468435	Opera Mini 7.1.34572/59
0.0908353594349496	Firefox 3.0
0.00283860498234217	Opera Mini 23.0.2254/58
0.00283860498234217	Opera Mini 7.0.32584/59
0.00567720996468435	Opera Mini 7.0.29974/63
0.00851581494702652	Opera Mini 8.0.40377/64
0.00567720996468435	UC Browser 8.0.3
0.0198702348763952	Opera Mobile 16.0.1212
0.00851581494702652	Chrome Mobile 58.0.3005
0.00567720996468435	Opera Mini 7.5.33937/65
0.0113544199293687	Opera Mini 7.1.33624/37
0.0141930249117109	Opera Mini 7.5.33942/58
0.0198702348763952	Opera Mini 5.0.20283/37
0.00567720996468435	Camino 2.1
0.00283860498234217	Safari 1.3.2
0.00283860498234217	Chrome Mobile 56.0.2887
0.00567720996468435	Opera Mini 7.5.32908/37
0.0113544199293687	Opera Mini 8.0.35659/59
0.00283860498234217	Opera Mini 7.5.33884/37
0.00283860498234217	Opera Mini 7.5.33135/58
0.00283860498234217	Opera Mini 4.4.32563/37
0.00851581494702652	Edge 15.14951
0.00851581494702652	Chrome Mobile 54.0.2816
284.723434148849	Google Chrome 40.0
1.51581506057072	Opera Mini 7.5.35721/37
0.698296825656175	Opera (unknown version)
8.82238428511948	Samsung Browser 4.2
15.5782641430938	Safari 9.0.1
11.8994320859784	UC Browser 11.1.5
11.9817516304663	Mozilla Firefox 27.0
1.03041360859021	Opera Mini 17.0.2211/37
0.116382804276029	Opera Mini 8.0.1807/57
5.67437135970201	Safari 7.0.3
129.59367186385	Safari 10.1.1
2.99188965138865	Mozilla Firefox 55.0
0.017031629894053	Opera Mini 26.0.2254/64
0.0454176797174748	Opera Mini 15.0.2125/64
0.414436327421957	Opera Mobile 41.1.2246
1.90754254813394	Firefox 6.1
0.017031629894053	Opera Mini 8.0.35676/57
0.0312246548057639	Opera Mini 7.5.32551/37
0.00283860498234217	UC Browser 9.5.2
0.00283860498234217	Opera Mini 5.0.21342/37
0.317923758022323	Opera Mini 7.6.40234/60
0.175993508905215	Puffin 6.0.8
0.0198702348763952	Opera 9.6
0.513787501803934	Opera Mobile 42.1.2246
0.0340632597881061	Opera Mini 4.2.18154/37
0.0397404697527904	Opera Mini 7.0.31318/37
0.0596107046291857	Opera Mini 4.5.40312/62
0.017031629894053	Chrome Mobile 55.0.2858
0.00283860498234217	Mozilla Firefox 2.0.0.11
0.0141930249117109	Opera Mini 20.1.2254/61
0.0283860498234217	Opera Mini 4.5.40380/62
0.107866989329003	Opera Mini 7.5.33361/63
0.0596107046291857	Android Browser 1.6
0.278183288269533	MIUI Browser 8.7.7
0.116382804276029	Puffin 6.1.0
0.0766423345232387	MIUI Browser 8.9.4
0.0681265195762122	Opera Mini 13.0.1
0.00283860498234217	Opera Mini 4.2.18887/37
0.0113544199293687	Opera Mini 4.2.23449/57
0.00851581494702652	Opera Mini 7.5.33286/62
0.00851581494702652	Chrome Mobile 55.0.2842
0.00283860498234217	MIUI Browser 8.2.3
0.0198702348763952	Opera Mini 11.0.1912/64
0.00851581494702652	Opera Mini 7.6.40077/57
0.00283860498234217	Opera Mini 7.0.29773/65
0.017031629894053	Opera Mini 4.5.40318/57
0.00283860498234217	Opera Mini 7.0.29950/63
0.0141930249117109	UC Browser 9.7.6
0.0227088398587374	Dolphin 2.0
0.0113544199293687	Edge 15.15007
0.00283860498234217	Opera Mini 7.1.33624/60
0.0141930249117109	Puffin 4.7.4
0.00851581494702652	Opera Mini 23.0.2254/61
0.00283860498234217	Opera Mini 8.0.4/37
0.00851581494702652	Opera Mini 8.0.35667/64
0.0340632597881061	Opera Mini 11.0.0
0.00567720996468435	Opera Mini 4.4.29620/62
0.00567720996468435	Chrome Mobile 59.0.3030
0.00567720996468435	Opera Mini 16.0.2168/58
0.00283860498234217	Opera Mini 7.1.32448/60
0.00283860498234217	Opera Mini 4.2.13216/59
0.00283860498234217	Opera Mini 7.0.32026/59
0.00567720996468435	Mozilla Firefox 3.1
1.57542576519991	Mozilla Firefox 8.0
44.3049465643966	Chrome Mobile 35.0.1916
0.62733170109762	Opera Mini 9.0.1829/37
0.786293580108782	Opera Mobile 35.2.2070
0.212895373675663	MIUI Browser 8.6.0
4.60421728135901	Google Chrome 24.0
2.70519054817209	Firefox 7.5
0.306569338092955	Safari 7.1.3
1.26034061215993	Netscape Navigator 4.0
0.840227074773283	Yandex.Browser 17.3.0
0.0425790747351326	Safari 4.0.5
0.00283860498234217	Chrome Mobile 58.0.2992
0.0766423345232387	Firefox 25.0
0.0425790747351326	Chrome Mobile 55.0.2860
0.0766423345232387	Opera Mini 22.0.2254/62
0.00283860498234217	Opera Mini 7.1.32052/53
0.0510948896821591	Opera Mini 9.0.0/37
0.0596107046291857	Opera Mini 17.0.2211/59
0.862935914632021	Chrome Mobile 38.0.1025
0.0113544199293687	Opera Mini 25.0.2254/61
0.00283860498234217	Opera Mini 7.5.35263/61
0.00283860498234217	Chrome Mobile 52.0.2740
0.048256284699817	Safari 10.3
0.0198702348763952	Opera Mini 4.3.25172/37
0.00283860498234217	Opera Mini 7.5.33389/37
0.00851581494702652	Firefox 21.0
0.0141930249117109	Opera Mini 7.5.33942/57
0.00283860498234217	Opera Mini 7.0.28879/57
0.00567720996468435	Opera Mini 7.5.33942/63
0.00283860498234217	Opera Mini 4.2/60.313
0.00567720996468435	Opera Mini 7.5.35613/57
0.00567720996468435	Safari 4.0dp1
0.00283860498234217	Opera Mini 8.0.35158/59
0.00283860498234217	Opera Mini 7.5.33391/64
0.00851581494702652	Opera Mini 8.0.40337/37
0.00283860498234217	Opera Mini 7.5.33725/65
0.124898619223056	Opera Mini 7.0.5/61
0.0993511743819761	Opera Mini 11.0.1
0.0425790747351326	MIUI Browser 8.4.1
0.00283860498234217	Chrome Mobile 41.50520.2250
0.00283860498234217	Opera Mini 7.6.40077/63
0.00567720996468435	Firefox 8.0
0.00283860498234217	Opera Mini 4.5.33634/61
0.00283860498234217	Chrome Mobile 57.0.2983
0.0198702348763952	Edge 15.15210
0.00851581494702652	Opera Mini 7.7.40394/62
0.00567720996468435	Opera Mini 6.5.30242/64
0.0255474448410796	Opera Mini 13.0.2036/58
0.00283860498234217	Chrome Mobile 59.0.3061
0.00283860498234217	Opera Mini 25.0.2254/62
0.00283860498234217	Opera Mini 7.0.30496/60
0.00283860498234217	HotJava 1.1
713.054732959372	QQBrowser
23.3503645847467	Microsoft Internet Explorer 6.0
1497.75017846309	Mozilla Firefox 45.0
120.859284333183	Safari 9.1.3
0.124898619223056	Safari 7.0.4
0.193025138799268	Opera Mini 4.5.33867/37
0.127737224205398	Opera Mini 7.5.35721/57
0.0369018647704483	Safari 5.0.2
0.06528791459387	Google Chrome 1.0
0.0227088398587374	Edge 15.15014
0.0141930249117109	UC Browser 2.3.2
0.00283860498234217	Chrome Mobile 58.0.2988
0.224249793605032	Mozilla Firefox 1.5.0
0.119221409258371	Opera Mini 4.2.22537/37
0.403081907492589	Opera Mini 22.0.2254/58
0.150446064064135	MIUI Browser 8.7.3
0.0113544199293687	Opera Mini 4.4.29595/37
0.00283860498234217	Opera Mobile 14.0.1074
0.00851581494702652	Opera Mini 7.0.29950/59
0.0510948896821591	Opera Mobile 27.0.1698
0.00851581494702652	Chrome Mobile 56.0.2890
0.0283860498234217	Chrome Mobile 53.0.2763
0.00851581494702652	Opera Mini 4.4.29595/63
0.00283860498234217	Opera Mini 4.2.13337/65
0.0113544199293687	UC Browser 3.4.2
0.204379558728637	MIUI Browser 8.2.11
0.0283860498234217	Opera Mini 7.5.33466/29
0.0113544199293687	Opera Mini 20.0.2254/65
0.00567720996468435	UC Browser 8.3.1
0.0198702348763952	Opera Mini 8.0.40325/60
0.00283860498234217	Opera Mini 4.2.20663/37
0.0113544199293687	Opera Mini 12.1.1
0.00567720996468435	Opera Mini 9.1.0
0.00283860498234217	Opera Mini 4.0.10031/37
1.30008108191272	MIUI Browser 8.0.11
8.37388469790941	Chrome Mobile 44.0.2403
0.644363330991673	UC Browser 10.7.11
4.34874283294821	UC Browser 10.10.0
0.760746135267703	Opera Mini 10.0.1884/37
0.820356839896888	Safari 7.1
17.1678829332055	Chrome Mobile 38.0.2125
1535.68245684213	Safari 10.0
1.31995131678911	Opera Mini 11.0.1912/37
14.8402268476849	Mozilla Firefox 30.0
4.55596099665919	UC Browser 11.4.1
0.539334946645013	Yandex.Browser 17.3.2
0.369018647704483	Opera Mini 7.5.32195/37
0.862935914632021	Yandex.Browser 16.6.0
0.218572583640347	Opera Mini 4.2.23449/37
11.5020273884505	UC Browser 11.2.5
0.0794809395055809	MIUI Browser 8.4.5
0.2356042135344	UC Browser 10.8.7
0.445660982227721	Opera Mini 7.6.35843/37
7.40875900391307	Chrome Mobile 27.0.1453
0.0454176797174748	UC Browser 9.1.1
0.136253039152424	Opera Mini 22.0.2254/61
0.0709651245585543	UC Browser 10.1.5
0.0283860498234217	Edge 15.15055
0.0312246548057639	Opera Mini 8.0.35667/57
0.0141930249117109	UC Browser 3.4.1
0.0851581494702652	Opera Mini 20.0.2254/62
0.161800483993504	MIUI Browser 8.1.3
0.0198702348763952	Opera Mini 8.0.35659/60
0.0879967544526074	Opera Mini 7.5.33286/60
0.334955387916377	Firefox 7.3
0.0369018647704483	MIUI Browser 8.9.3
0.0255474448410796	Opera Mini 4.5.40380/65
0.0113544199293687	Opera Mini 18.0.1290/37
0.0227088398587374	Opera Mini 7.5.31658/37
0.00283860498234217	Opera Mini 5.1.21594/37
0.0539334946645013	Opera Mini 14.0.2065/59
0.00283860498234217	Opera Mini 5.1.21927/61
0.00283860498234217	Opera Mini 18.0.1290/59
0.00283860498234217	Opera Mini 4.4.34952/61
0.00283860498234217	UC Browser 6.1.4
0.0255474448410796	Opera Mini 7.5.33474/58
0.00567720996468435	Android Browser 4.4
0.00567720996468435	Opera Mini 4.0.9751/60
0.0198702348763952	Opera Mini 16.0.2168/61
0.00283860498234217	Opera Mini 7.6.35872/37
0.00567720996468435	Opera Mini 7.0.5/57
0.00567720996468435	Chrome Mobile 59.0.3057
0.00851581494702652	Edge 15.15207
0.00851581494702652	MIUI Browser 8.1.2
0.0113544199293687	Opera Mini 7.0.32404/37
0.00283860498234217	Opera Mini 4.2.23453/64
0.00851581494702652	Opera Mini 9.1.0/58
0.00567720996468435	Chrome Mobile 56.0.2914
0.00283860498234217	Opera Mini 18.0.2254/64
0.00567720996468435	Puffin 4.6.0
0.00851581494702652	Opera Mini 7.1.32543/37
0.00283860498234217	Opera Mini 4.4.33943/63
0.00283860498234217	Chrome Mobile 58.0.3021
118.39537520851	Mozilla Firefox 41.0
45.2530406284989	Chrome Mobile 28.0.1500
2.53203564424922	Safari 5.0.6
827.65489330649	Microsoft Internet Explorer 8
4.93065685432836	Mozilla Firefox 22.0
15.3540143494888	Mozilla Firefox 28.0
220.111107540777	Safari 9.1.1
106.362528688361	Chrome Mobile 50.0.2661
11.8568530112433	Microsoft Internet Explorer (unknown version)
13.5827248405073	Google Chrome 17.0
28.1703158447637	Android Browser
0.388888882580878	UC Browser 9.4.1
0.0681265195762122	Opera Mini 22.0.2254/37
4.40267632761271	Google Chrome 19.0
4.19545816390173	Microsoft MSN Explorer
1.98702348763952	UC Browser 10.5.2
1.2319545623365	Mozilla Firefox 5.0
0.0397404697527904	Amazon Silk 51.1.116
0.201540953746294	Yandex.Browser 16.4.0
0.738037295408965	Internet Explorer Mobile 9.0
0.184509323852241	Opera Mini 7.5.35721/60
0.630170306079962	UC Browser 2.9.11
0.0141930249117109	Opera Mini 8.0.35678/37
0.13057582918774	Yandex.Browser 16.2.1
0.017031629894053	Opera Mini 8.0.35200/37
0.0936739644172917	Opera Mini 7.0.5/37
0.00283860498234217	Opera 9.3
0.0965125693996339	Opera Mini 10.0.1884/60
0.0141930249117109	Opera Mobile 15.0.1162
0.0113544199293687	Safari 0.9
0.017031629894053	Opera Mini 20.1.2254/59
0.00283860498234217	Opera Mini 6.0.24093/37
0.0312246548057639	Opera Mini 17.0.2211/60
0.0198702348763952	Opera Mini 4.2.22537/61
0.00283860498234217	Opera Mini 6.5.26955/63
0.0141930249117109	Opera Mini 4.5.40318/64
0.0851581494702652	Opera Mini 15.0.2125/63
0.0141930249117109	Opera Mini 8.0.1807/63
0.0709651245585543	Internet Explorer 10.0
0.082319544487923	Opera Mobile 37.4.2192
0.00567720996468435	Opera Mini 7.6.40099/60
0.00283860498234217	Opera Mini 25.0.1619/61
0.0397404697527904	Internet Explorer 9.0
0.00851581494702652	Opera Mini 7.1.33553/63
0.00567720996468435	Chrome Mobile 54.0.2834
0.00283860498234217	Opera Mini 4.2.13221/58
0.00567720996468435	Nintendo Browser 1.7.10150
0.0539334946645013	Android Browser 9.1
0.00283860498234217	Chrome Mobile 53.0.2749
0.0141930249117109	MQQ Browser 6.8
0.00283860498234217	Opera Mini 28.0.1764/61
0.00851581494702652	Opera Mini 7.0.29990/37
0.00851581494702652	Chrome Mobile 55.0.2846
0.00283860498234217	Opera Mini 6.5.27452/58
0.00283860498234217	Opera Mini 8.0.35659/57
0.00567720996468435	Opera Mini 23.0.2254/63
0.00283860498234217	Opera Mini 8.0.40326/58
0.00567720996468435	Opera Mini 4.2.18154/58
0.00283860498234217	Opera Mini 7.0.29759/63
0.0283860498234217	Chrome Mobile 56.0.2915
0.00283860498234217	Opera Mini 7.5.35724/61
7.66423345232387	Mozilla Firefox 20.0
43.9501209416039	Chrome Mobile 45.0.2454
3.85198696103833	UC Browser 10.9.0
0.519464711768618	UC Browser 9.5.0
1.55839413530585	UC Browser 9.9.2
0.0709651245585543	Opera Mini 7.5.33135/37
10.1451742068909	Mozilla Firefox 26.0
17.3609080720047	Chrome Mobile 40.0.2214
1.31995131678911	UC Browser 11.4.7
146.012163081717	Safari 10.1
0.164639088975846	Chrome Mobile 56.0.2919
1.34549876163019	Opera Mini 20.0.2254/37
0.0596107046291857	UC Browser 2.8.3
0.150446064064135	Opera Mini 11.0.1912/60
0.26115165837548	UC Browser 10.2.1
0.0227088398587374	UC Browser 10.3.2
0.0709651245585543	Edge 14.14926
0.017031629894053	Firefox 17.0
0.00283860498234217	Opera Mini 7.1.32448/58
0.0596107046291857	Mozilla Firefox 2.0
0.0283860498234217	Opera Mini 10.0.1884/61
0.0227088398587374	Mozilla Firefox 1.0
0.167477693958188	Safari 6.2
0.0340632597881061	Opera Mini 13.0.2036/61
0.0908353594349496	Safari 4.0.4
0.0965125693996339	Opera Mini 7.6.40234/64
0.0198702348763952	UC Browser 9.3.2
0.0255474448410796	Opera Mini 17.0.2211/58
0.00283860498234217	Konqueror 3
0.00283860498234217	UC Browser 7.9.4
0.00283860498234217	Chrome Mobile 60.0.3074
0.00283860498234217	Chrome Mobile 48.2.2564
0.00283860498234217	Opera Mini 7.6.40115/61
0.00567720996468435	Opera Mini 7.0.31782/59
0.00567720996468435	Opera Mini 7.5.31834/37
0.00283860498234217	Opera Mini 4.2.13337/62
0.00283860498234217	Opera Mini 8.0.35667/62
0.00283860498234217	Netscape Navigator 7.2
0.0255474448410796	Opera Mini 8.0.35659/62
0.00283860498234217	Opera Mini 7.0.29993/58
0.00283860498234217	Opera Mini 7.6.40077/64
0.0141930249117109	Chrome Mobile 54.0.2815
0.0255474448410796	Opera Mini 7.5.35202/37
0.017031629894053	UC Browser 7.9.0
0.00283860498234217	Opera Mini 4.2.14912/63
0.00283860498234217	UC Browser 8.4.0
0.00283860498234217	Opera Mini 7.0.29759/59
0.00283860498234217	Chrome Mobile 21.0.1180
0.00283860498234217	Opera Mini 4.2.23449/63
0.00283860498234217	UC Browser 2.8.1
0.00567720996468435	Opera Mini 7.5.35202/62
2712.53401926141	Google Chrome 52.0
480.516212805901	Google Chrome 47.0
182.136250087003	Yandex.Browser
12.742497765734	Google Chrome 29.0
0.476885637033485	Opera Mini 7.1.32444/37
3.48864552329853	Google Chrome 18.0
12.518247972129	MIUI Browser 2.1.1
0.0936739644172917	Opera Mini 8.0.1807/60
0.0794809395055809	Opera Mini 7.5.33725/57
9.31630155204701	Google Chrome 20.0
7.70965113204134	UC Browser 11.4.9
1.81954579368133	Safari 10.1.2
0.173154903922873	MIUI Browser 8.5.4
0.00567720996468435	Opera Mini 7.0.32796/57
0.0425790747351326	Opera Mini 4.5.40380/57
0.207218163710979	Opera Mini 8.0.40325/37
1.27737224205398	Opera Mini 7.5.35199/37
0.229927003569716	Android Browser 1.5
0.448499587210063	Yandex.Browser 16.7.1
0.00567720996468435	Yandex.Browser 14.12.2125
0.153284669046477	Opera Mini 4.5.40312/60
0.10502838434666	Netscape Navigator 1.1
0.0369018647704483	Opera Mini 13.0.2036/59
0.0227088398587374	Opera Mini 19.0.2254/59
0.0113544199293687	MIUI Browser 8.1.5
0.0936739644172917	Opera Mini 7.5.33361/61
0.0198702348763952	Opera Mini 14.0.2065/62
0.017031629894053	Yandex.Browser 15.12.1
0.184509323852241	Chrome Mobile 57.0.2950
0.153284669046477	Opera Mini 12.0.1987/59
0.0397404697527904	WAP Browser
0.00851581494702652	Chrome Mobile 59.0.3063
0.0141930249117109	Nokia S60 Browser 7.2.6
0.0908353594349496	Chrome Mobile 61.0.3124
0.0113544199293687	Firefox 1.2.0
0.00851581494702652	Opera Mini 7.1.32444/65
0.0198702348763952	Opera Mini 20.0.2254/63
0.00283860498234217	Opera Mini 7.5.31658/57
0.00567720996468435	Chrome Mobile 11.0.696
0.017031629894053	Opera Mini 7.0.28879/60
0.0397404697527904	Opera Mini 10.0.1884/58
0.0255474448410796	Opera Mini 4.5.40318/60
0.00851581494702652	Opera Mini 14.0.1074/37
0.017031629894053	Opera Mini 7.5.32195/62
0.00851581494702652	MQQ Browser 4.2
0.00283860498234217	Opera Mini 4.4.34273/37
0.00567720996468435	Opera Mini 16.0.2168/62
0.00567720996468435	Opera Mini 8.0.40356/63
0.00283860498234217	Opera Mini 20.0.1396/60
0.00283860498234217	Opera Mini 22.0.1485/37
0.00283860498234217	Opera Mini 7.1.33628/37
0.00283860498234217	Opera Mini 17.0.2211/62
0.00283860498234217	Chrome Mobile 59.0.3051
0.00567720996468435	Opera Mini 7.5.35202/61
0.00567720996468435	Opera Mini 8.0.35659/61
0.0141930249117109	Opera Mini 4.5.40318/61
0.00851581494702652	Opera Mini 7.5.35114/37
0.00283860498234217	Opera Mini 8.0.40313/57
0.00283860498234217	MQQ Browser 2.6
0.00283860498234217	UC Browser 3.3.1
0.00283860498234217	Yandex.Browser 15.2.2214
0.00283860498234217	Chrome Mobile 61.0.3135
18.084752342502	Mozilla Firefox 33.0
2.27088398587374	Safari 8.0.2
145.99229284684	Mozilla Firefox 43.0
1369.32885045695	Mozilla Firefox 51.0
1.16950525272498	Firefox 6.0
0.0255474448410796	Opera Mini 4.5.35503/37
0.860097309649679	UC Browser 10.7.2
0.0681265195762122	Edge 15.15031
0.0255474448410796	Opera Mini 13.0.2036/57
0.667072170850411	Google Chrome 7.0
0.0766423345232387	Opera Mini 15.0.2125/61
0.0198702348763952	Opera Mini 16.0.1212/60
0.082319544487923	UC Browser 10.8.4
0.0340632597881061	UC Browser 9.3.1
0.082319544487923	Opera Mini 4.4.31524/37
0.198702348763952	UC Browser 10.8.2
0.0596107046291857	Opera Mini 7.5.35263/37
0.00567720996468435	UC Browser 9.9.3
0.249797238446111	UC Browser 11.0.3
0.269667473322507	MIUI Browser 8.8.2
0.158961879011162	UC Browser 4.0
0.0340632597881061	Safari 5.1.4
0.0198702348763952	Opera Mini 7.6.35843/61
0.0141930249117109	Opera Mini 8.0.40313/37
0.113544199293687	MIUI Browser 8.9.1
0.00851581494702652	Opera Mini 7.6.40125/63
0.00567720996468435	Opera Mini 5.1.24009/63
0.0113544199293687	Opera Mini 6.1.27412/58
0.00283860498234217	Opera Mini 7.1.32052/60
0.00283860498234217	Chrome Mobile 57.0.2944
0.0113544199293687	Opera Mini 8.0.35180/37
0.017031629894053	Opera Mini 4.5.33867/58
0.00283860498234217	Opera Mini 5.1.24009/62
0.0227088398587374	Opera Mini 20.1.2254/57
0.00283860498234217	Opera Mini 4.3.24214/58
0.017031629894053	Opera Mini 4.4.26736/37
0.0255474448410796	webOS Browser 221.56
0.0141930249117109	Edge 15.15223
0.00283860498234217	Netscape Navigator 4.0 beta 4
0.0283860498234217	Opera Mobile 37.9.2192
0.00567720996468435	Opera Mini 6.1.25577/37
0.0141930249117109	Opera Mini 6.5.27431/57
0.0141930249117109	Opera Mini 4.1.14287/63
0.00567720996468435	Opera Mini 21.0.1437/61
0.00567720996468435	UC Browser 2.6.1
10.1111109471028	Chrome Mobile 39.0.2171
18.9278180222576	Safari 9.0.2
6.49756680458124	Google Chrome 22.0
3.79521486139149	MIUI Browser 8.1.6
2.69099752326038	Mobile Safari 5.0.2
0.00567720996468435	Opera Mini 4.2.14320/37
5.41889691129121	UC Browser 11.4.5
4470.03358523871	Google Chrome 55.0
0.00283860498234217	Opera Mini 4.4.31524/60
156.401457317089	Safari 10.0.2
4.5900242564473	Opera Mobile 42.7.2246
32.0535274606078	Chrome Mobile 46.0.2490
0.35198701781043	Safari 5.1.1
12.7112731109283	UC Browser 11.3.0
13.0178424490212	UC Browser 11.0.8
0.0624493096115278	Opera Mini 7.5.35721/63
7.2356040999902	Google Chrome 61.0
0.017031629894053	Opera Mini 8.0.35673/37
2.0125709324806	MIUI Browser 8.4.4
0.0908353594349496	Opera Mini 7.0.28879/37
0.0454176797174748	MIUI Browser 8.6.3
1.56407134527054	Amazon Silk 52.1.79
0.0624493096115278	Opera Mobile 12.00
0.116382804276029	Opera Mini 4.5.40318/37
0.0454176797174748	Opera Mini 5.1.24009/37
0.0624493096115278	UC Browser 2.9.7
0.0227088398587374	Opera Mini 5.1.21086/37
0.0340632597881061	Chrome Mobile 51.3.2704
0.0425790747351326	Opera Mini 4.5.40312/59
0.0312246548057639	UC Browser 10.6.4
0.00567720996468435	Opera Mini 6.0.24572/37
0.153284669046477	Opera Mobile 33.0.2002
0.116382804276029	Opera Mini 24.0.2254/61
0.048256284699817	UC Browser 8.9.2
0.0425790747351326	Microsoft Internet Explorer 7.0 beta
0.664233565868069	Amazon Silk 51.2.1
0.0227088398587374	Opera Mini 4.5.33867/61
0.00851581494702652	Opera Mini 4.1.13907/60
0.00851581494702652	Opera Mini 7.6.35766/64
0.00567720996468435	Chrome Mobile 55.0.2841
0.00283860498234217	Opera Mini 28.0.1764/37
0.0113544199293687	Opera Mini 7.6.40077/59
0.00283860498234217	Opera Mini 8.0.35189/62
0.00283860498234217	Opera Mini 7.0.5/59
0.00567720996468435	Opera Mini 7.6.40125/61
0.00283860498234217	Opera Mini 7.1.32252/57
0.00283860498234217	Opera Mini 4.2.23449/58
0.00851581494702652	UC Browser 3.0.0
0.0794809395055809	Opera Mini 10.2.0
0.00283860498234217	Opera Mini 4.4.29620/61
0.00567720996468435	Opera Mini 6.5.28404/37
0.00567720996468435	Opera Mini 19.0.2254/64
0.00283860498234217	Opera Mini 7.8.40358/37
0.00283860498234217	Opera Mini 4.2/37.8841
0.00283860498234217	Opera Mini 8.0.40325/61
0.00567720996468435	Opera Mini 7.5.32193/59
0.675587985797437	UC Browser 10.1.2
70.1788309784455	Mozilla Firefox 44.0
335.233571204646	Chrome Mobile 56.0.2924
0.919708014278864	UC Browser 10.7.6
0.187347928834583	Safari 5.1.2
0.0141930249117109	Opera Mini 7.5.35199/65
0.181670718869899	UC Browser 10.9.13
1.9047039431516	UC Browser 10.7.0
1.34833736661253	UC Browser 10.10.3
0.0141930249117109	Opera Mini 8.0.35667/60
0.0738037295408965	UC Browser 9.8.0
0.0993511743819761	Chrome Mobile 40.2214.121
0.0397404697527904	Chrome Mobile 53.0.2764
0.0596107046291857	Opera Mini 18.0.2254/59
0.00851581494702652	Opera Mini 7.6.40251/60
0.0141930249117109	Microsoft Internet Explorer 5.5
0.00567720996468435	Opera Mini 4.2.17605/37
0.0766423345232387	Opera Mini 4.5.40312/63
0.681265195762122	Amazon Silk 58.2.6
0.00567720996468435	Opera Mini 8.0.35674/37
0.00567720996468435	Opera Mini 8.0.35676/58
0.136253039152424	Safari 6.2.4
0.017031629894053	Opera Mini 6.1.27412/65
0.06528791459387	Safari 5.1.5
0.00567720996468435	Opera Mini 7.6.40077/65
0.00567720996468435	Edge 14.14390
0.116382804276029	MIUI Browser 8.7.0
0.017031629894053	Opera Mini 8.0.1807/62
0.00283860498234217	Opera Mini 7.0.31318/60
0.00851581494702652	Opera Mini 7.5.35724/60
0.00851581494702652	Chrome Mobile 54.0.2818
0.278183288269533	Chrome Mobile 60.0.3101
0.00283860498234217	Opera Mini 7.5.35263/63
0.00567720996468435	Puffin 5.1.1
0.0454176797174748	Edge 15.15215
0.0766423345232387	UC Browser 2.3.1
0.00283860498234217	Opera Mini 4.4.32420/63
0.00283860498234217	Nintendo Browser 1.8.10156
0.00283860498234217	Opera Mini 9.0.0
0.00567720996468435	Opera Mini 7.5.32193/64
0.048256284699817	Firefox 1.2
0.00283860498234217	UC Browser 9.8.7
0.00283860498234217	Opera Mini 7.0.29474/63
0.00283860498234217	Opera Mini 4.2.20464/60
0.00851581494702652	Mozilla Firefox 2.0.0.7
0.00283860498234217	Opera Mini 4.0.9800/58
0.017031629894053	Chrome Mobile 60.0.3097
0.00283860498234217	Android Browser 4.4.4
0.00283860498234217	Opera Mini 7.1.32448/63
0.00567720996468435	Opera Mini 4.3.24214/64
0.00567720996468435	Opera Mini 6.1.25378/65
17.9144360435614	Opera Mobile 37.0.2192
11.6496348475323	Safari 7.0.6
0.675587985797437	UC Browser 10.1.0
38.0486611833145	Safari 9.0.3
0.749391715338334	Opera Mini 8.0.1807/37
1.23479316731885	Chrome Mobile 37.0.2062
0.621654491132936	Chrome Mobile 42.0.2307
6.57137053412213	MIUI Browser 8.6.5
2.25385235597969	UC Browser 11.5.4
0.0340632597881061	Yandex.Browser 14.10.2062
0.00283860498234217	Opera Mini 6.5.29390/65
0.312246548057639	UC Browser 9.2.0
0.263990263357822	Opera Mobile 42.0.2246
0.0198702348763952	Opera Mini 7.1.32444/57
0.0908353594349496	Opera Mini 14.0.2065/60
0.0681265195762122	Opera Mini 13.0.2036/60
0.187347928834583	MIUI Browser 8.8.4
0.0766423345232387	Opera Mini 24.0.2254/62
0.0283860498234217	MIUI Browser 8.7.6
0.181670718869899	Chrome Mobile 59.0.3068
0.00283860498234217	UC Browser 8.6.1
0.00283860498234217	Opera Mini 8.0.35665/37
0.00567720996468435	Chrome Mobile 54.0.2820
0.0851581494702652	Opera Mini 7.6.40234/61
0.048256284699817	Opera Mini 9.0.1829/60
0.00567720996468435	Opera Mini 7.0.5/63
0.0141930249117109	Amazon Silk 46.1.66
0.0738037295408965	Opera Mini 12.0.1987/58
0.0283860498234217	Opera Mini 8.0.35626/58
0.0567720996468435	Opera Mini 7.5.35199/61
0.0198702348763952	Chrome Mobile 54.0.2827
0.184509323852241	Amazon Silk 53.4.2
0.0141930249117109	Opera Mini 7.6.40125/58
0.0198702348763952	UC Browser 8.5.3
0.102189779364318	UC Browser 10.8.6
0.00567720996468435	Opera Mini 7.1.32453/62
0.0369018647704483	Opera Mini 4.2.23449/59
0.00283860498234217	Chrome Mobile 50.0.2656
0.0312246548057639	Puffin 4.7.3
0.00283860498234217	Opera Mini 7.1.34794/60
0.0113544199293687	UC Browser 4.2.0
0.00283860498234217	Opera Mini 4.4.29620/63
0.00567720996468435	Opera Mini 8.0.40377/61
0.00283860498234217	Opera Mini 4.2.19634/60
0.00283860498234217	Chrome Mobile 57.0.2957
0.017031629894053	Firefox 1.0.7
0.00283860498234217	Opera Mini 7.0.29950/64
0.00283860498234217	Galeon 1.3.15
0.00567720996468435	Opera Mini 4.6.32741/37
0.00851581494702652	Chrome Mobile 58.0.3011
0.00283860498234217	Opera Mini 7.5.33725/64
0.00283860498234217	Amazon Silk 3.41
0.00283860498234217	Opera Mini 4.5.33634/37
0.00283860498234217	Samsung Browser 54.0.2840
0.00283860498234217	BlackBerry Browser
0.00283860498234217	Opera Mini 7.5.35602/58
671.511749042794	Mozilla Firefox 46.0
593.521077152943	
260.336978745548	Chrome Mobile 53.0.2785
18.6467961290057	Edge 14.14393
36.6463903220375	Chrome Mobile 47.0.2526
10.5567719293305	UC Browser 8.7.0
22.0758309476751	Mozilla Firefox 36.0
20.4549875027577	Mozilla Firefox (unknown version)
0.107866989329003	UC Browser 10.10.9
4.76034055538783	Google Chrome 12.0
1436.36818432493	Mozilla Firefox 52.0
1596.17312901585	Mozilla Firefox 53.0
0.0255474448410796	Opera Mini 7.1.32444/63
0.00567720996468435	Opera Mini 14.0.2065/64
1.39375504633001	Amazon Silk 55.2.6
0.556366576539066	Opera Mobile 42.4.2246
0.970802903961023	Opera Mini 19.0.2254/37
0.0510948896821591	Opera Mini 7.7.40394/37
0.0198702348763952	Mozilla Firefox 2.0.0.1
0.00567720996468435	Opera Mini 7.1.32453/57
0.00567720996468435	Opera Mini 4.2/57.135
0.0425790747351326	Opera Mobile 35.3.2070
0.00851581494702652	Opera Mini 4.2.13216/37
2.58029192894904	MIUI Browser 8.2.10
0.346309807845745	UC Browser 1.0.0
0.0198702348763952	UC Browser 10.3.1
0.00283860498234217	Opera Mini 7.0.32026/62
0.0141930249117109	Opera Mini 7.5.31684/37
0.00567720996468435	Opera Mini 23.0.2254/62
0.0596107046291857	Opera Mini 7.5.33361/62
0.00567720996468435	Opera Mini 9.0.1829/62
0.048256284699817	Opera Mini 4.2.13918/37
0.0113544199293687	Chrome Mobile 54.0.2826
0.00283860498234217	Netscape Navigator 4.08
0.0113544199293687	Mozilla Firefox 2.0.0.6
0.0283860498234217	Chrome Mobile 58.0.3012
0.0312246548057639	Opera Mini 7.1.32444/64
0.0198702348763952	Chrome Mobile 58.0.3015
0.00283860498234217	Nokia S40 Browser 5.5.0
0.00283860498234217	Opera Mini 6.1.25390/60
0.00283860498234217	Opera Mini 7.5.33901/57
0.00851581494702652	Amazon Silk 58.4.1
0.00567720996468435	Chrome Mobile 54.4.2840
0.00283860498234217	Galeon 1.3.14
0.0227088398587374	Opera Mini 7.7.40394/61
0.00283860498234217	Opera Mini 7.0.29759/65
0.0113544199293687	Opera Mini 16.0.2168/57
0.0340632597881061	Firefox 24.0
0.0227088398587374	Firefox 31.9
0.0454176797174748	Opera Mini 7.7.40394/57
0.048256284699817	Yandex.Browser 14.5.1847
0.00567720996468435	Chrome Mobile 56.0.2886
0.00283860498234217	Chrome Mobile 55.0.2845
0.00283860498234217	Opera Mini 7.5.33879/57
0.0141930249117109	Opera Mini 4.4.33943/37
0.00851581494702652	Opera Mini 6.0.25598/37
0.00567720996468435	Opera Mini 8.0.35158/60
0.00283860498234217	Opera Mini 7.5.34817/61
0.00283860498234217	Google Chrome 0.3
0.00283860498234217	Opera Mini 4.3.24490/59
0.00567720996468435	Opera Mini 7.6.40234/55
0.00283860498234217	Opera Mini 7.0.29993/57
0.00283860498234217	Opera Mini 8.0.35676/65
44.6540949772247	Internet Explorer Mobile 11.0
125.948903066522	Safari 0.8.2
20.988645239438	Chrome Mobile 34.0.1847
58.5150031060016	Google Chrome 33.0
0.298053523145928	Opera Mobile 18.0.1290
5.52392529563787	BlackBerry Browser 10.0
1.24614758724821	Opera Mini 15.0.2125/37
1.00770476873147	Opera 10
0.320762363004666	Opera Mini 21.0.2254/57
1.27169503208929	UC Browser 10.2.0
0.269667473322507	Samsung Browser 58.0.3029
0.295214918163586	UC Browser 10.9.15
1.22911595735416	Android Browser 5.1
0.0425790747351326	Opera Mini 9.0.1829/57
0.215733978658005	UC Browser 10.3.0
1.98418488265718	Amazon Silk 57.1.109
0.207218163710979	MIUI Browser 8.7.5
0.0141930249117109	Opera Mini 8.0.35676/60
0.414436327421957	Samsung Browser 1.0
0.0255474448410796	Chrome Mobile 56.0.2892
0.0879967544526074	Opera Mini 4.5.40312/61
0.187347928834583	Edge 15.14977
0.22141118862269	Opera Mini 8.0.35659/37
0.0369018647704483	Opera Mini 9.0.1829/59
0.00851581494702652	Opera Mini 7.1.32453/61
0.0283860498234217	UC Browser 2.0.1
0.0227088398587374	Firefox 39.0.1a
0.0227088398587374	Mozilla Firefox 2.0.0.4
0.107866989329003	MIUI Browser 8.1.0
0.00851581494702652	Opera Mini 6.0.25270/37
0.0227088398587374	Opera Mini 11.0.1912/63
0.00283860498234217	Opera Mini 7.1.33886/63
0.0198702348763952	Opera Mini 4.5.40380/58
0.00283860498234217	Opera Mini 6.5.27431/59
0.00567720996468435	Opera Mini 7.6.35843/59
0.00283860498234217	Opera Mini 7.6.40234/53
0.00851581494702652	Firefox 1.0.8
0.0283860498234217	Opera Mini 8.0.35626/62
0.00283860498234217	Opera Mini 10.0.1884/62
0.00283860498234217	Opera Mini 5.1.24639/63
0.017031629894053	Opera Mini 7.6.40249/37
0.00283860498234217	Opera Mini 7.6.35813/37
0.00567720996468435	UC Browser 3.2.0
0.0227088398587374	Opera Mini 7.1.33553/60
0.00283860498234217	Opera Mini 6.0.24209/37
0.00567720996468435	Lynx 2.7
0.00283860498234217	Chrome Mobile 54.0.2800
0.00567720996468435	Opera Mini 4.2.18887/63
0.0113544199293687	NetFront 4.2
0.00567720996468435	Opera Mini 14.0.0/59
0.00851581494702652	Chrome Mobile 54.0.2819
0.00283860498234217	Opera Mini 8.0.35667/58
0.00283860498234217	Opera Mini 4.2.22228/57
0.00283860498234217	Chrome Mobile 56.0.2889
0.0340632597881061	Firefox 37.0.1
0.00283860498234217	Yandex.Browser 16.10.3
4.7518247404408	Microsoft Internet Explorer 7.0
2.32765608552058	UC Browser 10.7.5
1802.11108187979	Google Chrome 51.0
8.75425776554326	Mozilla Firefox 3.6
8.66626101109066	UC Browser 10.10.5
41.7416862653417	Samsung Browser 5.0
19.9894562856536	Samsung Browser 3.5
0.794809395055809	Opera Mini 20.1.2254/37
4.34022701800118	BlackBerry Browser 10
1.49878343067667	UC Browser 11.4.8
2.03527977233934	Chrome Mobile 33.0.1750
1.9387672029397	UC Browser 11.5.5
0.831711259826257	UC Browser 10.10.1
0.882806149508416	Amazon Silk 54.3.1
0.0596107046291857	Opera Mini 7.5.35702/37
0.0596107046291857	UC Browser 11.1.2
0.110705594311345	Opera Mobile 26.0.1656
0.0567720996468435	Opera Mini 8.0.35626/57
0.0908353594349496	UC Browser 2.3.0
0.462692612121774	Safari 5.1.6
0.0624493096115278	MIUI Browser 8.0.4
0.048256284699817	Safari 5.1.8
0.0141930249117109	Opera Mini 4.3.25985/37
0.119221409258371	Opera Mini 11.0.1912/61
0.0397404697527904	Opera Mini 16.0.2168/60
0.0681265195762122	Opera Mini 7.5.33725/58
0.0113544199293687	Opera Mini 6.1.32997/37
0.00567720996468435	Opera Mini 7.0.30697/37
0.00567720996468435	Opera Mini 4.2.13057/37
0.116382804276029	MIUI Browser 8.8.3
0.0510948896821591	Yandex.Browser 16.10.1
0.161800483993504	Safari 5.1.3
0.00283860498234217	MIUI Browser 8.3.9
0.0965125693996339	UP.Browser
0.0539334946645013	Opera Mini 20.0.2254/61
0.00851581494702652	Chrome Mobile 57.0.2969
0.0369018647704483	Microsoft Internet Explorer 6.0 beta
0.0425790747351326	UC Browser 2.7.0
0.0227088398587374	Edge 15.14946
0.0397404697527904	Chrome Mobile 59.0.3033
0.0397404697527904	Opera Mini 20.1.2254/60
0.0227088398587374	Firefox 19.0
0.0141930249117109	UC Browser 10.4.9
0.0227088398587374	Opera Mini 4.4.29595/58
0.0113544199293687	Chrome Mobile 59.0.3044
0.00283860498234217	Opera Mini 4.5.40316/37
0.00283860498234217	Opera Mini 6.1.25580/37
0.00851581494702652	Opera Mini 9.0.1829/64
0.0624493096115278	Opera Mini 18.0.2254/58
0.00851581494702652	Opera Mini 13.0.2036/63
0.0965125693996339	UC Browser 11.0.9
0.00851581494702652	Opera Mini 7.0.29952/59
0.0255474448410796	Opera Mini 9.0.1829/63
0.00283860498234217	Nokia S60 Browser 7.1.18124
0.00567720996468435	Chrome Mobile 57.0.2943
0.00283860498234217	Opera Mini 7.6.40097/59
0.00851581494702652	Opera Mini 7.5.33286/57
0.017031629894053	Opera Mini 7.6.35843/64
0.00567720996468435	Chrome Mobile 59.0.3042
0.00283860498234217	Nokia S60 Browser 8.3.2
0.00567720996468435	Opera Mini 7.0.29473/62
0.0113544199293687	Opera Mini 7.5.35613/58
0.00283860498234217	Opera Mini 7.6.40251/57
53.6865360310375	Google Chrome 38.0
1.78264392891089	UC Browser 10.9.19
11.1159771108519	Safari 6.2.8
1.9387672029397	Mozilla Firefox 7.0
2.032441167357	UC Browser 10.8.8
1911.02835505226	Mozilla Firefox 50.0
181.46633931117	Google Chrome 43.0
0.360502832757456	Opera Mini 7.5.33942/37
0.187347928834583	Safari 7.0.1
0.082319544487923	Opera Mobile 12.10
0.0908353594349496	Opera Mini 7.6.40234/57
9.34752620685278	Java (unknown version)
28.4030814533158	Google Chrome 60.0
2.15733978658005	MIUI Browser 8.7.8
1.47891319580027	UC Browser 10.7.8
0.173154903922873	UC Browser 2.9.3
0.136253039152424	UC Browser 9.5.1
0.397404697527904	Mobile Safari 4.0.5
0.113544199293687	Safari 5.1
0.0794809395055809	UC Browser 2.4.0
0.00567720996468435	Opera Mini 8.0.40326/59
0.00283860498234217	Opera Mini 4.4.34273/60
0.0312246548057639	Opera Mini 7.6.40125/60
0.0227088398587374	Opera Mini 4.2.22537/60
0.0312246548057639	Samsung Browser 57.0.2987
0.00567720996468435	Netscape Navigator 6
0.0141930249117109	Opera Mini 7.6.40077/58
0.0539334946645013	Opera Mobile 21.0.1437
0.00567720996468435	Opera Mini 7.5.32672/60
0.0113544199293687	Opera Mini 4.1.15082/64
0.10502838434666	Chrome Mobile 57.0.2970
0.00283860498234217	Opera Mini 6.5.27049/37
0.06528791459387	Amazon Silk 59.1.92
0.0567720996468435	Opera Mini 15.0.2125/58
0.0198702348763952	Opera Mini 4.5.33867/63
0.00851581494702652	Opera Mini 7.5.31657/59
0.00283860498234217	Opera Mini 4.2.20464/59
0.00567720996468435	Opera Mini 6.5.27431/60
0.0510948896821591	Safari 3.2.1
0.017031629894053	Opera Mini 20.0.2254/64
0.00283860498234217	Opera Mini 16.0.2168/65
0.0198702348763952	Opera Mini 7.6.35843/65
0.00567720996468435	Opera Mini 4.5.35092/65
0.00283860498234217	Opera Mini 7.1.33886/57
0.00283860498234217	Chrome Mobile 56.0.2907
0.0255474448410796	MIUI Browser 8.2.8
0.0113544199293687	Opera Mini 7.6.40125/59
0.00283860498234217	Opera Mini 4.0.18061/61
0.0113544199293687	Mozilla Firefox 2.0.0.10
0.00567720996468435	Opera Mini 6.1.25375/57
0.00283860498234217	Opera Mini 4.2.14004/37
0.00283860498234217	Edge 14.14376
0.00567720996468435	Opera Mini 7.5.32672/59
0.00851581494702652	Opera Mini 4.5.33867/62
0.00567720996468435	Opera Mini 7.6.35813/61
0.00283860498234217	Opera Mini 6.5.28159/61
0.0141930249117109	Galeon (unknown version)
0.00283860498234217	Firefox 16.0
0.00283860498234217	Chrome Mobile 58.0.2991
11.2153282852339	Mozilla Firefox 6.0
171.863338655907	Android Browser 4.0
10.7866989329003	Google Chrome 26.0
0.00567720996468435	Opera 9.7
3.00608267630036	UC Browser 11.4.6
1.51013785060604	Samsung Browser 1.1
0.567720996468435	Opera Mobile 42.3.2246
3.29845898948161	MIUI Browser 8.5.7
6.32441190065836	Safari 8.0.3
0.638686121026989	Safari 5.0
0.00851581494702652	Opera Mini 7.6.8/37
0.0397404697527904	MIUI Browser 8.6.2
0.32643957296935	Opera Mini 7.5.32193/37
0.124898619223056	Nokia Browser 1.0.1
0.0794809395055809	Nintendo Browser 4.3.1
0.581914021380146	UC Browser 10.9.10
0.184509323852241	Opera Mini 15.0.2125/60
0.0227088398587374	Opera Mini 7.0.29993/37
0.0908353594349496	Chrome Mobile 55.0.2868
0.167477693958188	Opera Mini 7.6.40125/37
0.0510948896821591	Opera Mini 7.5.33725/62
0.0709651245585543	Opera Mini 8.0.40377/37
0.00283860498234217	Opera Mini 4.4/37.9311
0.017031629894053	MIUI Browser 8.5.1
0.0510948896821591	Yandex.Browser 15.6.2311
0.122060014240713	UC Browser 8.8.2
0.00567720996468435	Opera Mini 5.0.18302/37
0.017031629894053	Opera Mini 8.0.1807/61
0.147607459081793	Opera Mini 7.0.32026/37
0.0312246548057639	Opera Mini 6.1.27412/63
0.0198702348763952	Mobile Safari 4.0
0.00283860498234217	Chrome Mobile 53.0.2767
0.00283860498234217	Opera Mini 7.0.29993/63
0.048256284699817	Opera Mini 4.2.24721/37
0.0198702348763952	Opera Mini 26.0.2254/65
0.048256284699817	Opera Mini 23.0.2254/60
0.00851581494702652	UC Browser 2.9.4
0.0113544199293687	UC Browser 11.1.6
0.0113544199293687	Opera Mini 18.0.1290/63
0.00567720996468435	Chrome Mobile 58.0.3026
0.0141930249117109	UC Browser 2.0.2
0.0283860498234217	Opera Mini 7.0.29703/57
0.00283860498234217	Opera Mini 13.0.1/37
0.0141930249117109	UC Browser 10.7.4
0.00567720996468435	Opera Mini 7.0.29773/37
0.00283860498234217	Opera Mini 25.0.2254/60
0.00283860498234217	Opera Mini 7.0.31859/37
0.00283860498234217	Opera Mini 7.0.30707/37
0.0113544199293687	Opera Mini 7.6.40272/60
0.00567720996468435	Opera Mini 4.2.24725/37
0.00567720996468435	Chrome Mobile 54.0.2806
0.00283860498234217	Opera Mini 4.2.13057/64
0.00283860498234217	Opera Mini 7.5.33495/27
0.00567720996468435	Opera Mini 7.5.32672/62
0.00567720996468435	Firefox 2.1
0.00283860498234217	Opera Mini 7.1.32052/58
5.85320347358956	Opera Mini 7.6.40234/37
29.2205996882303	Samsung Browser 2.1
6.7842659077978	Samsung Browser 3.2
780.553920834486	Microsoft Internet Explorer 9
4.3146795731601	Edge 13.10586
0.618815886150594	BlackBerry Browser 7.1.0
491.652060151629	Chrome Mobile 55.0.2883
24.4006484282133	Mozilla Firefox 37.0
424.374283465137	Chrome Mobile 58.0.3029
5.75952950917227	UC Browser 11.5.2
0.0312246548057639	Opera Mini 7.5.32195/64
1.42214109615343	UC Browser 11.3.2
0.454176797174748	Opera Mobile 35.0.2070
2.28791561576779	Opera Mini 18.0.2254/37
0.703974035620859	Opera Mini 4.5.40380/37
0.048256284699817	Chrome Mobile 57.0.2984
0.00567720996468435	Opera Mini 7.1.32449/37
0.292376313181244	Yandex.Browser 16.10.2
0.26115165837548	UC Browser 10.9.14
1.8848337082752	UC Browser 11.0.4
0.408759117457273	Mozilla (Gecko) 1.4
0.0425790747351326	UC Browser 2.8.5
0.0283860498234217	Opera Mini
0.337793992898719	UC Browser 2.9.8
0.00283860498234217	Obigo WAP2.0
0.0709651245585543	Chrome Mobile 20.0.0
0.0681265195762122	Chrome Mobile 57.0.2977
0.19586374378161	Safari 6.1.1
0.800486605020493	Yandex.Browser 17.3.1
0.383211672616193	UC Browser 9.7.0
0.0141930249117109	Opera Mini 4.2.22230/37
0.00851581494702652	Chrome Mobile 42.0.0
0.164639088975846	Opera Mini 7.6.40234/58
0.082319544487923	Opera Mini 7.5.35721/59
0.0198702348763952	Opera Mini 7.5.32195/59
0.00567720996468435	Opera Mini 7.0.32403/59
0.0113544199293687	Opera Mini 8.0.35158/57
0.0113544199293687	Opera Mini 13.0.2036/62
0.244120028481427	Safari 4.0.3
0.0113544199293687	Nokia S60 Browser 7.4.2
0.0539334946645013	MIUI Browser 8.3.1
0.017031629894053	Opera Mini 7.0.29952/62
0.0397404697527904	Opera Mini 7.1.32444/60
0.00567720996468435	Opera Mini 7.5.35602/60
0.0510948896821591	Opera Mini 7.5.33361/65
0.00283860498234217	UC Browser 10.4.7
0.00283860498234217	Opera Mini 6.0.24455/37
0.102189779364318	Android Browser 5.0
0.0567720996468435	MIUI Browser 8.2.2
0.00283860498234217	Chrome Mobile 61.0.3143
0.0766423345232387	Opera Mini 4.5.40312/57
0.017031629894053	Opera Mini 7.0.28879/64
0.00283860498234217	Opera Mini 6.0.0/60
0.00283860498234217	Opera Mini 4.1.13572/65
0.017031629894053	Opera Mini 12.0.1987/64
0.00283860498234217	Opera Mini 10.0.1884/65
0.00851581494702652	UC Browser 8.9.0
0.0113544199293687	Opera Mini 7.1.32445/37
0.048256284699817	Opera Mini 4.2.22537/57
0.0369018647704483	Opera Mini 8.0.35840/37
0.0567720996468435	Amazon Silk 48.2.2
0.0198702348763952	Opera Mini 7.1.32453/58
0.00567720996468435	Opera Mini 5.1.23117/37
0.00283860498234217	Opera Mini 7.5.31657/58
0.00283860498234217	Opera Mini 4.2.22714/60
0.00567720996468435	Chrome Mobile 55.0.2861
0.00567720996468435	Amazon Silk 3.13
0.00567720996468435	Safari 3.1
0.017031629894053	Opera Mini 19.0.2254/61
0.0141930249117109	Safari 3.0 (iPhone)
0.00283860498234217	Opera Mini 7.5.33901/62
0.00283860498234217	Opera Mini 4.4.29991/37
0.00851581494702652	UC Browser 2.5.0
0.0198702348763952	Nintendo Browser 1.9.10160
0.00567720996468435	Opera Mini 7.5.35602/59
0.00283860498234217	Opera Mini 8.0.1807/65
0.00567720996468435	Opera Mini 23.0.2254/65
241.00891742078	Chrome Mobile 51.0.2704
0.448499587210063	UC Browser 10.9.4
0.882806149508416	UC Browser 10.9.2
6.83536079747995	Safari 8.0.5
3072.5968682466	Google Chrome 57.0
199.429031639432	Safari 10.0.1
332.105428514105	Chrome Mobile 54.0.2840
131.399024632619	Mozilla Firefox 31.0
0.388888882580878	Chrome Mobile 34.0.0
0.227088398587374	Puffin 6.0.9
0.499594476892223	UC Browser 11.5.8
0.0113544199293687	Opera Mini 17.0.2211/57
0.766423345232387	UC Browser 10.9.9
0.0596107046291857	Microsoft Internet Explorer 5.01
1.21776153742479	Mozilla Firefox 3.5
0.803325210002835	UC Browser 11.2.6
0.017031629894053	UC Browser 10.8.1
0.00851581494702652	Opera Mini 5.0.22234/37
0.082319544487923	Opera Mini 7.6.40251/37
0.950932669084628	Amazon Silk 54.4.4
0.0198702348763952	Yandex.Browser 16.3.3
0.0397404697527904	Opera Mini 4.2.23449/60
0.127737224205398	Opera Mini 7.5.33361/59
0.00283860498234217	Opera Mini 7.5.35263/57
0.00567720996468435	Opera Mini 7.0.29733/37
0.0198702348763952	Edge 14.14388
0.00283860498234217	Nokia S60 Browser
0.0255474448410796	UC Browser 10.6.7
0.00567720996468435	Chrome Mobile 53.0.2769
0.00283860498234217	Chrome Mobile 60.0.3078
0.06528791459387	Opera Mini 21.0.2254/62
0.00567720996468435	Opera Mini 7.6.35766/58
0.00567720996468435	Chrome Mobile 54.0.2835
0.0369018647704483	Edge 14.14372
0.10502838434666	UC Browser 9.8.9
0.0283860498234217	Opera Mini 7.0.32584/37
0.136253039152424	Safari 11.0
0.0369018647704483	Firefox 20.0
0.144768854099451	Mozilla Firefox 56.0
0.017031629894053	Nokia S60 Browser 3.1
0.0113544199293687	Chrome Mobile 58.0.3006
0.0141930249117109	Opera Mini 7.5.31657/60
0.06528791459387	Opera Mini 11.0.1912/57
0.0141930249117109	Opera Mini 16.0.2168/64
0.0198702348763952	Opera Mini 12.0.1987/65
0.00283860498234217	Edge 15.15205
0.0113544199293687	Opera Mini 7.0.28879/61
0.00283860498234217	Opera Mini 7.0.30281/37
0.00283860498234217	Mozilla Firefox 1.5 beta
0.00283860498234217	UC Browser 2.9.0
0.00567720996468435	Opera Mini 7.5.31693/37
0.00851581494702652	Opera Mini 10.0.1884/64
0.00567720996468435	OneBrowser 3.2
0.00283860498234217	Opera Mini 7.0.28879/63
0.00283860498234217	Edge 14.14383
0.00283860498234217	Opera Mini 6.5.28159/63
0.00851581494702652	Chrome Mobile 55.0.2848
0.00283860498234217	Opera Mini 4.2.17605/65
0.00283860498234217	Opera Mini 7.5.32478/29
25.8341439442961	Google Chrome 34.0
14.2639900362694	Chrome Mobile 48.0.2564
1572.51051788304	Mozilla Firefox 47.0
99.8223828090449	Mozilla Firefox 29.0
1.07299268332534	Opera Mini 12.0.1987/37
0.215733978658005	UC Browser 9.4.0
3.95985395036733	Mozilla Firefox 13.0
1.63219786484675	Google Chrome 8.0
1.42497970113577	Android Browser 4.2
9.60016205028123	UC Browser 11.0.0
1.44201133102982	Safari 6.0.5
13.5656932106132	Mozilla Firefox 21.0
0.0624493096115278	Opera Mini 12.0.1987/57
1.28021084703632	UC Browser 10.4.1
0.0709651245585543	UC Browser 8.1.0
0.539334946645013	Google Chrome 9.0
0.0141930249117109	Opera Mini 9.1.0/57
0.312246548057639	UC Browser 10.0.0
0.227088398587374	Safari 7.1.2
0.13057582918774	UC Browser 2.9.1
0.0141930249117109	Opera Mini 8.0.40377/60
0.082319544487923	Opera Mini 18.0.2254/60
0.150446064064135	Opera Mini 15.0.2125/59
0.0198702348763952	UC Browser 9.9.0
0.0596107046291857	Amazon Silk 53.2.53
0.110705594311345	Chrome Mobile 60.0.3107
0.147607459081793	Opera Mini 21.0.2254/61
0.00283860498234217	Opera Mini 4.2.13257/37
0.0794809395055809	Opera Mini 12.0.1987/63
0.00567720996468435	Opera Mini 4.2.20464/64
0.00851581494702652	Opera Mini 4.2.23449/64
0.150446064064135	Puffin 5.2.0
0.00283860498234217	Edge 15.15222
0.00567720996468435	Opera Mini 8.0.40377/59
0.0283860498234217	Opera Mini 7.5.32195/60
0.0113544199293687	Lynx (unknown version)
0.00283860498234217	Opera Mini 7.5.31657/63
0.0198702348763952	Puffin 5.2.2
0.017031629894053	Opera Mini 21.0.2254/65
0.048256284699817	Opera Mini 4.2.18151/37
0.00567720996468435	Opera Mini 7.0.32026/60
0.0369018647704483	MIUI Browser 8.0.9
0.00283860498234217	Opera Mini 7.6.35766/62
0.00567720996468435	Opera Mini 4.2.20464/57
0.0198702348763952	Opera Mini 18.0.2254/57
0.00283860498234217	Opera Mini 4.2.17983/58
0.048256284699817	Amazon Silk 3.44
0.0141930249117109	Chrome Mobile 50.3.2661
0.00567720996468435	Opera Mini 4.2.13337/60
0.00567720996468435	Opera Mini 8.0.40325/57
0.00283860498234217	Opera Mini 4.2.22230/58
0.00283860498234217	Yandex.Browser 14.8.1985
0.00851581494702652	Google Chrome (GoogleTV)
446.407535338077	Google Chrome 59.0
0.485401451980512	Opera Mini 22.0.2254/60
2.9209245268301	UC Browser 11.3.8
4.72627729559972	Google Chrome 14.0
2.98337383644162	UC Browser 10.7.9
0.712489850567886	MQQ Browser 5.3
0.346309807845745	UC Browser 2.9.13
0.082319544487923	Opera Mini 20.0.2254/57
0.00851581494702652	Opera Mini 6.5.26571/37
2.31630166559121	Safari 6.0 (Mobile)
0.0283860498234217	Edge 14.14295
0.017031629894053	Android Browser 1.0
0.491078661945196	Opera Mobile 29.0.1809
0.0624493096115278	Safari 6.0.4
0.0113544199293687	Opera Mini 21.0.1437/37
0.292376313181244	Safari 6.2.6
0.0454176797174748	Safari 7.1.5
0.769261950214729	Safari 5.0.5
0.0255474448410796	Opera Mini 7.1.32446/37
0.215733978658005	Opera Mini 7.6.40234/59
0.00567720996468435	Chrome Mobile 56.0.2888
0.0312246548057639	Opera Mini 15.0.2125/57
0.10502838434666	Amazon Silk 1.0.22
0.0113544199293687	Opera Mini 7.6.40077/62
0.0965125693996339	Safari 4.0.1
0.0283860498234217	Chrome Mobile 60.0.3077
0.204379558728637	Amazon Silk 55.1.62
0.0255474448410796	UC Browser 9.0.1
0.0709651245585543	Opera Mini 22.0.2254/64
0.0965125693996339	UC Browser 11.0.2
0.0879967544526074	Chrome Mobile 56.0.2913
0.0425790747351326	Chrome Mobile 56.0.2906
0.0397404697527904	Opera Mini 6.1.27412/59
0.0255474448410796	Opera Mini 7.5.33474/61
0.00283860498234217	Opera Mini 27.0.1698/37
0.00567720996468435	Opera Mini 5.1.22296/37
0.00283860498234217	Opera Mini 8.0.35676/61
0.00567720996468435	Yandex.Browser 14.2.1700
0.00283860498234217	Mozilla Firefox 2.0.0.12
0.0312246548057639	Opera Mini 8.0.40377/58
0.0936739644172917	UC Browser 2.8.4
0.00283860498234217	Chrome Mobile 57.0.2971
0.00567720996468435	Opera Mini 4.0.9751/37
0.00567720996468435	Opera Mini 4.5.33868/57
0.0141930249117109	Opera Mini 7.5.33942/61
0.0141930249117109	Chrome Mobile 59.0.3031
0.00567720996468435	Chrome Mobile 57.4.2987
0.00283860498234217	Opera Mini 7.1.34814/61
0.00283860498234217	Opera Mini 7.1.33680/64
0.00283860498234217	Opera Mini 5.0/37.8762
0.00283860498234217	Chrome Mobile 57.0.2980
0.00283860498234217	Opera Mini 7.7.40394/59
1509.9192780224	Google Chrome 50.0
300.247764797279	Safari
0.00851581494702652	Amazon Silk 49.2.1
0.190186533816926	MIUI Browser 8.2.5
16.5377126271255	Safari 5.1.9
63.4939162450297	Mozilla Firefox 42.0
12.9752633742861	Safari 6.1.6
1.74006485417575	Opera 12.16
3.58231948771582	Opera 11
2.10056768693321	UC Browser 11.2.1
9.12611501823009	Google Chrome 25.0
0.0198702348763952	Opera Mini 4.4.29476/37
0.00283860498234217	Opera Mini 8.0.35180/57
0.564882391486092	Opera Mobile 32.0.1953
0.581914021380146	Opera Mobile 30.0.1856
0.0454176797174748	Opera Mini 7.5.35199/60
0.780616370144098	Firefox 5.2
0.0851581494702652	Nokia S60 Browser 7.3.1
0.00567720996468435	Opera Mini 7.6.40077/61
0.017031629894053	UC Browser 10.8.3
0.190186533816926	Opera Mini 21.0.2254/59
0.119221409258371	UC Browser 10.9.11
0.0113544199293687	Opera Mini 7.5.35613/63
0.0198702348763952	Opera Mini 7.6.35843/58
0.00851581494702652	Opera Mini 6.5.29806/37
0.283860498234217	Safari 7.1.8
0.0539334946645013	Opera Mini 5.1.24639/37
0.0227088398587374	Opera Mini 7.5.32672/37
0.00283860498234217	Opera Mini 7.0.29703/65
0.124898619223056	Yandex.Browser 17.4.0
0.0113544199293687	Opera Mini 7.5.32195/63
0.00567720996468435	Opera Mini 7.5.33901/60
0.00283860498234217	Chrome Mobile 54.0.2824
0.00851581494702652	Android Browser 4.4.3
0.0425790747351326	Chrome Mobile 55.0.2850
0.0255474448410796	Opera Mini 7.5.33286/61
0.00283860498234217	Opera Mini 4.2.18975/64
0.0141930249117109	Opera Mini 24.0.2254/65
0.0454176797174748	Opera Mini 8.0.35626/64
0.00851581494702652	Opera Mini 20.1.2254/62
0.00283860498234217	Opera Mini 7.1.32052/65
0.00851581494702652	Opera Mini 4.0.8462/37
0.0454176797174748	Chrome Mobile 58.0.3019
0.00851581494702652	Opera Mini 7.5.32193/57
0.0369018647704483	UC Browser 2.0.0
0.00283860498234217	Opera Mini 7.5.35188/58
0.00283860498234217	Opera Mini 7.0.31380/37
0.00283860498234217	Opera Mini 4.1.11320/60
0.00283860498234217	Safari 7.0 (Mobile)
0.0113544199293687	Opera Mini 7.0.29703/64
0.00283860498234217	Opera Mini 7.5.35188/60
0.0227088398587374	Yandex.Browser 14.4.1750
0.00283860498234217	Opera Mini 7.5.34817/60
0.00851581494702652	Opera Mini 4.2.14386/58
0.00567720996468435	Opera Mini 4.1.13907/64
19.7055957874194	Safari 8.0.8
3.72992694679762	Android Browser 6.0
0.414436327421957	Yandex.Browser 17.1.0
37.0437950195654	Safari 9.1
143.752633515772	Microsoft Edge 15
1.8848337082752	UC Browser 11.4.0
1.94444441290439	MIUI Browser 8.8.6
0.411597722439615	Amazon Silk 56.1.61
0.241281423499085	UC Browser 10.9.1
0.0709651245585543	Opera Mini 7.1.32052/37
0.0198702348763952	Chrome Mobile 41.51020.2250
0.0766423345232387	Chrome Mobile 58.0.3000
0.017031629894053	Opera Mini 7.5.32195/57
0.0879967544526074	Chrome Mobile 25.0.1364
0.161800483993504	Edge 14.14915
0.00567720996468435	UC Browser 9.8.5
0.017031629894053	Safari 9.2
0.0709651245585543	Opera Mini 11.0.1912/59
0.0283860498234217	Opera Mini 16.0.2168/59
0.0539334946645013	BlackBerry Browser 7.0.0
0.0510948896821591	Chrome Mobile 54.0.2821
0.0312246548057639	Chrome Mobile 59.0.3062
0.0539334946645013	Opera Mini 7.6.40234/62
0.0425790747351326	UC Browser 10.4.5
0.0312246548057639	Opera Mini 19.0.2254/58
0.0965125693996339	Opera Mini 7.5.33361/58
0.00283860498234217	Chrome Mobile 56.0.2884
0.00567720996468435	Opera Mini 4.2.22537/62
0.0340632597881061	Opera Mini 4.2.20457/37
0.0340632597881061	Chrome Mobile 54.0.2837
0.00283860498234217	Opera Mini 4.4.27464/37
0.110705594311345	Opera Mobile 42.8.2246
0.0113544199293687	Chrome Mobile 54.0.2832
0.00283860498234217	Safari 3.1.1
0.0141930249117109	Opera Mini 7.5.33286/59
0.0113544199293687	MIUI Browser 8.0.7
0.0255474448410796	Android Browser 5.1.1
0.00567720996468435	Opera Mini 6.5.30242/37
0.0113544199293687	Opera Mini 4.2.18154/57
0.00283860498234217	Yandex.Browser 17.6.0
0.00283860498234217	Opera Mini 7.0.29737/59
0.0198702348763952	Chrome Mobile 59.0.3037
0.0312246548057639	Opera Mini 8.0.35626/59
0.00283860498234217	Camino 2.0
0.00567720996468435	Opera Mini 7.5.33135/62
0.0851581494702652	Netscape Navigator 4.7
0.00283860498234217	Opera Mini 7.0.30568/37
0.00283860498234217	Opera Mini 7.6.40099/57
0.0141930249117109	Opera Mini 6.1.27412/57
0.00283860498234217	Opera Mini 6.5.27891/58
0.00567720996468435	Samsung Browser 56.0.2924
0.00283860498234217	Opera Mini 4.4.29465/37
0.0141930249117109	Edge 15.15043
0.00851581494702652	Chrome Mobile 55.0.2872
0.0113544199293687	Chrome Mobile 54.0.2803
0.00567720996468435	Opera Mini 7.0.31382/37
0.00567720996468435	Opera Mini 4.3.13337/63
0.00567720996468435	Opera Mini 4.2.20663/61
0.13057582918774	Chrome Mobile 61.0.3142
0.017031629894053	Opera Mini 7.5.34817/64
0.00283860498234217	Opera Mini 4.4.29595/61
0.00851581494702652	Opera Mini 4.2.13918/64
0.00283860498234217	Opera Mini 4.2.17574
0.00283860498234217	Opera Mini 7.0.29993/65
15.3000808548243	Mobile Safari 5.1
42.8203561586317	Mozilla Firefox 40.0
1.09002431321939	Android Browser 4.2.2
0.369018647704483	Firefox 4.0
22.1893751469688	UC Browser 11.0.5
1.4334955160828	Firefox 7.4
0.107866989329003	Opera Mobile 19.0.1340
0.323600967987008	MIUI Browser 8.2.6
0.0141930249117109	Opera Mini 5.1.21595/37
0.0141930249117109	Opera Mini 7.5.32199/37
0.0113544199293687	Safari 4.1
0.0596107046291857	Opera 9.5
0.315085153039981	Google Chrome 4.0
0.0738037295408965	Opera Mobile 37.3.2192
0.139091644134767	Safari 6.0.3
0.0454176797174748	Chrome Mobile 55.0.2876
0.0738037295408965	UC Browser 10.9.16
0.0255474448410796	Opera Mini 7.6.40077/60
0.0283860498234217	UC Browser 9.9.7
0.0369018647704483	Android Browser 4.3
0.0340632597881061	Safari 3.0.4
0.0965125693996339	Amazon Silk 54.2.3
0.00283860498234217	Mozilla Firefox 1.0.7
0.00567720996468435	UC Browser 8.2.0
0.0681265195762122	MIUI Browser 8.5.3
0.00567720996468435	Opera Mini 7.0.29950/37
0.0255474448410796	Opera Mini 8.0.35626/60
0.00851581494702652	Opera Mini 8.0.40326/60
0.00851581494702652	Opera Mini 8.0.35200/60
0.00283860498234217	Opera Mini 7.0.30710/59
0.0312246548057639	Opera Mini 6.1.27412/64
0.00567720996468435	Opera Mini 7.5.32193/62
0.0255474448410796	Edge 15.14959
0.00567720996468435	Opera Mini 7.7.40394/63
0.00567720996468435	Edge 14.14291
0.00283860498234217	Opera Mini 4.2.14912/64
0.0624493096115278	Opera Mini 4.1.15082/58
0.00567720996468435	Android Browser 6.0.1
0.00283860498234217	Opera Mini 8.0.35200/57
0.00567720996468435	Opera Mini 4.2.14912/57
0.00283860498234217	Opera Mobile 37.15.2192
0.00567720996468435	Opera Mini 7.1.33886/59
0.0141930249117109	Chrome Mobile 55.0.2869
0.00283860498234217	Opera Mini 18.0.1290/60
0.00283860498234217	Chrome Mobile 57.0.2974
0.00283860498234217	Microsoft Internet Explorer 3.0
0.0113544199293687	Opera Mobile 12.16
0.00283860498234217	Opera Mini 7.5.34235/65
0.00283860498234217	Amazon Silk 2.6
0.00283860498234217	Mozilla Firefox 1.5.0.2
0.00567720996468435	Opera Mini 7.0.32796/65
0.00283860498234217	Chrome Mobile 56.0.2898
39.1330082865692	Mozilla Firefox 24.0
434.808995380227	Mozilla Firefox 38.0
4.81427405005233	Mozilla Firefox 11.0
1773.81019020584	Google Chrome 49.0
294.269662704466	Samsung Browser 4.0
326.263579460445	Google Chrome 42.0
8.64639077621426	Mozilla Firefox 12.0
4.0251418649612	MIUI Browser 8.4.6
1.98986209262186	MIUI Browser 8.8.7
0.43146795731601	UC Browser 4.2.1
0.428629352333668	UC Browser 10.6.2
0.00283860498234217	Opera Mini 10.1.1
0.0283860498234217	Safari 3.1.2
0.0567720996468435	Opera Mini 14.0.0/37
0.198702348763952	Opera Mini 7.5.33725/60
0.0454176797174748	Amazon Silk 3.63
0.397404697527904	Chrome Mobile 32.0.1700
0.0113544199293687	Opera Mini 4.5.35526/37
0.0794809395055809	Yandex.Browser 16.2.2
0.0709651245585543	Opera Mini 7.5.35602/37
0.187347928834583	MIUI Browser 8.8.1
0.0936739644172917	Chrome Mobile 39.0.2125
0.0397404697527904	Chrome Mobile 59.0.3047
0.0624493096115278	Opera Mini 7.5.35721/61
0.00283860498234217	Opera Mini 5.1.23389/37
0.0993511743819761	Opera Mini 4.5.40312/58
0.0141930249117109	Edge 15.15051
0.0198702348763952	Opera Mini 7.5.33286/58
0.0283860498234217	Opera Mini 7.5.35199/59
0.00567720996468435	Chrome Mobile 54.0.2794
0.0255474448410796	Opera Mini 7.0.30496/37
0.0369018647704483	Safari 6.0.1
0.00567720996468435	Chrome Mobile 46.0.2487
0.06528791459387	MIUI Browser 8.8.5
0.00283860498234217	Opera Mini 4.1.11320/37
0.00283860498234217	Nokia S60 Browser 2.1
0.0596107046291857	MQQ Browser 6.6
0.0113544199293687	Opera Mini 7.6.40245/37
0.00567720996468435	Nokia S60 Browser 2.8
0.0255474448410796	Opera Mini 7.5.33391/37
0.00567720996468435	Chrome Mobile 55.0.2844
0.00283860498234217	Opera Mini 4.2.13918/57
0.0227088398587374	Chrome Mobile 46.0.2486
0.00567720996468435	Safari 3.2.3
0.0312246548057639	Opera Mini 19.0.2254/57
0.00283860498234217	Opera Mini 11.0.1/62
0.00283860498234217	Opera Mini 4.2.14912/60
0.00283860498234217	Edge 14.14342
0.00283860498234217	Opera Mini 7.6.32889/37
0.00283860498234217	Chrome Mobile 61.0.3144
0.00567720996468435	MIUI Browser 8.7.4
0.00283860498234217	Opera Mini 7.5.35702/63
0.00283860498234217	Opera Mini 7.0.28879/58
0.00567720996468435	Opera Mini 7.0.28870/61
4.34590422796587	Samsung Browser 2.0
3.53122459803366	UC Browser 10.9.8
0.309407943075297	UC Browser 10.6.8
51.7023511483804	Google Chrome 41.0
0.00283860498234217	Yandex.Browser 17.6.1
0.584752626362488	Chrome Mobile 29.0.1547
3.74695857669167	Firefox 5.3
0.212895373675663	Opera Mini 8.0.35676/37
0.017031629894053	UC Browser 9.0.2
0.371857252686825	Opera Mobile 41.0.2246
1.84793184350476	Safari 8.0.4
0.17031629894053	UC Browser 2.8.9
0.306569338092955	UC Browser 10.7.3
0.173154903922873	Opera Mini 4.1.15082/37
0.661394960885726	UC Browser 10.6.0
0.437145167280695	Android Browser 4.4.2
0.10502838434666	Opera Mini 4.1.13907/37
0.0936739644172917	Amazon Silk 47.1.81
0.0539334946645013	Opera Mini 7.5.35188/37
0.0454176797174748	UC Browser 3.2.1
0.357664227775114	Opera Mini 22.0.2254/59
0.00567720996468435	Chrome Mobile 56.0.2891
0.0369018647704483	Opera Mini 8.0.35626/63
0.0567720996468435	Amazon Silk 58.1.81
0.0340632597881061	Opera Mini 21.0.2254/63
0.0539334946645013	Opera Mini 4.5.40301/37
0.0709651245585543	UC Browser 10.5.1
0.017031629894053	MIUI Browser 8.5.13
0.0709651245585543	Opera Mini 7.5.33361/64
0.0397404697527904	Opera Mini 4.5.33867/65
0.0283860498234217	Chrome Mobile 61.0.3136
0.00283860498234217	Opera Mini 4.2.13918/58
0.00567720996468435	Opera Mini 9.1.0/59
0.017031629894053	Firefox 23.0
0.00851581494702652	Opera Mini 8.0.1807/64
0.00283860498234217	Opera Mini 4.2.22537/59
0.0113544199293687	Chrome Mobile 57.0.2949
0.0141930249117109	Opera Mini 7.6.35766/57
0.0141930249117109	Opera Mini 7.0.29952/61
0.00851581494702652	Opera Mini 7.5.35702/60
0.0113544199293687	MQQ Browser 5.2
0.00851581494702652	Opera Mini 7.1.32444/61
0.00567720996468435	Opera Mini 7.1.32453/59
0.00283860498234217	MIUI Browser 8.9.5
0.00567720996468435	Opera Mini 7.5.35199/63
0.00283860498234217	Chrome Mobile 57.0.2931
0.00283860498234217	Mozilla (Gecko) 0.9.6
411.237219606858	Safari 8.0
173.396185346372	Safari (unknown version)
1419.94685450208	SouGou Browser
150.426193829259	Google Chrome 46.0
8.98134616413064	Chrome Mobile 30.0.1599
35.2611510906545	Google Chrome 36.0
8.68045403600237	Google Chrome 23.0
87.0032427087876	Opera 12
1.06731547336066	Google Chrome 16.0
24.5028382075776	Google Chrome 21.0
0.133414434170082	Opera Mini 7.5.33361/57
0.0851581494702652	Chrome Mobile 60.0.3096
0.00567720996468435	Opera Mini 7.0.29473/37
0.0141930249117109	SEMC Browser 4.0.3
0.553527971556724	Safari 7.0.5
0.017031629894053	Opera 9.8
0.0624493096115278	Chrome Mobile 49.0.2571
0.215733978658005	Amazon Silk 1.0.146
0.925385224243549	Google Chrome 15.0
0.0624493096115278	Opera Mini 4.2.22228/37
0.0425790747351326	Chrome Mobile 55.0.2875
0.238442818516743	Firefox 7.0
0.0312246548057639	MIUI Browser 8.5.6
0.227088398587374	Yandex.Browser 16.10.0
0.312246548057639	Opera Mobile 42.5.2246
0.263990263357822	Yandex.Browser 17.1.2
0.06528791459387	Chrome Mobile 56.0.2900
0.00283860498234217	Opera Mini 7.5.35271/37
0.0340632597881061	Opera Mini 15.0.2125/62
0.00851581494702652	Opera Mobile 11.00
0.806163814985177	Yandex.Browser 16.9.0
0.0113544199293687	Chrome Mobile 54.0.2831
0.0340632597881061	Mozilla Firefox 3.0 beta
0.0425790747351326	Opera Mini 14.0.2065/63
0.017031629894053	Opera Mini 7.5.32195/61
0.0255474448410796	Opera Mini 18.0.2254/63
0.00283860498234217	Opera Mini 4.4.29620/37
0.0567720996468435	UC Browser 10.8.9
0.00567720996468435	Opera Mini 8.0.40356/37
0.00851581494702652	Chrome Mobile 40.0.2194
0.00283860498234217	Opera Mini 4.2.18151/58
0.0369018647704483	Opera Mini 7.5.32195/58
0.00283860498234217	Opera Mini 7.5.35613/59
0.00851581494702652	Chrome Mobile 55.0.2856
0.0255474448410796	Android Browser 4.1.2
0.00283860498234217	UC Browser 1.0.1
0.00851581494702652	Opera Mini 7.5.35199/64
0.00283860498234217	Opera Mini 19.0.2254/65
0.00567720996468435	Opera Mini 10.0.1884/57
0.00283860498234217	Opera Mini 6.5.27891/61
0.00283860498234217	Opera Mini 6.1.25375/37
0.00567720996468435	Opera Mini 4.1.14287/37
0.00283860498234217	Opera Mini 7.6.35872/60
0.0141930249117109	Yandex.Browser 15.12.2490
0.00283860498234217	Opera Mini 4.5.35223/37
0.00567720996468435	Chrome Mobile 58.0.3027
0.00567720996468435	Opera Mini 4.5.40301/58
0.00283860498234217	Opera Mini 19.0.2254/62
54.9667468780738	Google Chrome 35.0
8.70316287586111	Safari 5.1.7
2.24249793605032	UC Browser 11.0.6
0.306569338092955	Opera Mini 7.1.32453/37
15.1098943210074	Chrome Mobile 42.0.2311
1.81102997873431	Mozilla (Gecko) (unknown version)
24.5652875171892	Chrome Mobile 38.0.0
4952.80648900557	Google Chrome 56.0
0.0879967544526074	UC Browser 9.6.0
4.09042977955507	Internet Explorer Mobile 10.0
0.0369018647704483	Opera Mini 4.1.15082/63
3.35806969411079	UC Browser 11.5.6
0.22141118862269	Safari 9.3
0.0794809395055809	UC Browser 10.1.3
0.493917266927538	UC Browser 10.9.6
2.39578260509679	MIUI Browser 8.3.2
1.46188156590622	Amazon Silk 50.2.1
0.298053523145928	Safari 7.1.7
0.17031629894053	Chrome Mobile 537.306
0.0936739644172917	MIUI Browser 8.6.4
0.0113544199293687	Opera Mini 4.1.13572/37
0.664233565868069	UC Browser 2.9.10
0.0369018647704483	Chrome Mobile 46.0.2456
0.0993511743819761	Kindle Browser
0.0510948896821591	UC Browser 10.1.4
0.00283860498234217	Opera Mini 7.5.32193/61
0.00851581494702652	Chrome Mobile 56.0.2899
0.0539334946645013	Opera Mini 4.2.14912/37
0.0283860498234217	Opera Mini 19.0.1340/37
0.0510948896821591	Edge 15.15208
0.0227088398587374	MIUI Browser 8.5.12
0.13057582918774	Chrome Mobile 53.0.2782
0.0851581494702652	Safari 5.0.1
0.00851581494702652	Opera Mini 7.1.32444/62
0.0141930249117109	Opera Mini 7.5.33725/63
0.0539334946645013	UC Browser 2.9.12
0.00283860498234217	Opera Mini 8.0.40326/57
0.0283860498234217	Chrome Mobile 61.0.3129
0.00283860498234217	Opera Mini 4.5.40318/65
0.0283860498234217	Opera Mini 4.2.22537/64
0.0283860498234217	Chrome Mobile 61.0.3139
0.00283860498234217	Opera Mini 4.2.18887/57
0.0141930249117109	Opera Mini 4.5.33867/57
0.0369018647704483	Opera Mini 9.0.1829/58
0.00283860498234217	Opera Mini 17.0.2211/61
0.00283860498234217	Puffin 4.0.4
0.0113544199293687	Chrome Mobile 60.0.3073
0.00283860498234217	Opera Mini 4.1.11321/37
0.0198702348763952	UC Browser 2.9.2
0.00283860498234217	Opera Mini 6.5.27452/63
0.00283860498234217	Opera 5.12
0.0340632597881061	Opera Mini 7.5.32200/59
0.0340632597881061	Samsung Browser 52.0.2743
0.00283860498234217	MQQ Browser 4.3
0.00283860498234217	Netscape Navigator 4.04
0.00283860498234217	Opera Mini 4.4.28684/59
0.00567720996468435	Opera Mini 7.0.28879/62
3.8633413809677	UC Browser 10.8.0
2.86982963714794	Mozilla Firefox 4.0
5.60624484012579	Chrome Mobile 49.0.0
2896.68567888588	Google Chrome 53.0
169.243306257205	Safari 9.1.2
8.95296011430722	UC Browser 11.2.8
7.75506881175882	UC Browser 11.3.5
0.0340632597881061	Opera Mini 4.5.33867/60
2.1942416513505	Chrome Mobile 31.0.1650
0.899837779402469	Opera Mobile 42.2.2246
0.207218163710979	Puffin 4.8.0
0.0198702348763952	Opera Mini 7.1.32453/63
0.0369018647704483	Nokia Browser 1.0
0.048256284699817	Safari 3.0.0
0.119221409258371	Opera Mini 4.2.20464/37
1.14111920290155	Google Chrome 6.0
0.343471202863403	Opera Mini 7.5.33286/37
0.0141930249117109	Opera Mini 4.2.18975/37
0.766423345232387	Safari 7.0.2
0.0794809395055809	Opera Mini 9.1.0/37
0.224249793605032	UC Browser 10.0.2
0.0198702348763952	Opera Mini 7.1.33578/37
0.675587985797437	Opera Mini 16.0.2168/37
0.0312246548057639	Chrome Mobile 23.0.1271
0.309407943075297	UC Browser 2.9.9
0.00851581494702652	Yandex.Browser 17.4.3
0.0312246548057639	Opera Mini 4.5.40380/59
0.0141930249117109	Android Browser 3.1.2
0.082319544487923	UC Browser 2.6.0
0.00851581494702652	Opera Mini 7.5.33942/59
0.00851581494702652	Opera Mini 7.0.29923/37
0.00283860498234217	Opera Mini 7.1.32052/61
0.00283860498234217	Opera Mini 7.0.29704/37
0.0766423345232387	Safari 6.2.2
0.0141930249117109	Opera Mini 4.1.15231/37
0.00851581494702652	Opera Mini 4.2.23449/62
0.0312246548057639	Google Chrome 0.4
0.00283860498234217	Opera Mini 7.0.3/60
0.00567720996468435	Opera Mini 8.0.40377/62
0.0369018647704483	Puffin 5.0.3
0.0198702348763952	Chrome Mobile 54.0.2838
0.107866989329003	MIUI Browser 8.1.10
0.00851581494702652	Chrome Mobile 55.0.2854
0.017031629894053	Opera Mini 4.5.33867/64
0.00851581494702652	Konqueror 3.1
0.0113544199293687	Opera Mini 5.0.16823/37
0.0141930249117109	Opera Mini 6.5.26989/37
0.00283860498234217	Opera Mini 7.1.32451/37
0.0312246548057639	Opera Mobile 36.0.2126
0.00567720996468435	Firefox 18.0
0.0369018647704483	Opera Mini 7.1.32444/58
0.0198702348763952	MIUI Browser 8.4.2
0.00567720996468435	Opera Mini 7.1.32453/64
0.0397404697527904	Puffin 4.6.1
0.00567720996468435	Opera Mini 8.0.35180/61
0.00283860498234217	Opera Mini 7.5.31657/65
0.00567720996468435	Opera Mini 4.5.40309/37
0.00283860498234217	Firefox 18.1
0.00283860498234217	Opera Mini 8.0.35763/57
0.00283860498234217	Opera Mini 6.1.25378/37
0.00283860498234217	Opera Mini 7.5.31658/60
0.00567720996468435	Opera Mini 6.5.29390/37
0.00283860498234217	Opera Mini 4.1.15082/62
0.00283860498234217	Opera Mini 5.1.24639/60
0.00283860498234217	UC Browser 3.3.0
0.00283860498234217	Opera Mini 4.1.13906/37
41.9290341941762	Mozilla Firefox 17.0
98.9963487591833	Chrome Mobile 37.0.0
39.396998549927	Chrome Mobile 49.0.2623
10.8065691677766	Mozilla Firefox 32.0
0.451338192192406	UC Browser 3.4.3
1.57258716021756	Chrome Mobile 26.0.1410
33.0442005994452	Mozilla Firefox 35.0
1.50729924562369	Opera Mini 7.5.33725/37
2.57177611400201	Mozilla Firefox 9.0
0.0255474448410796	Amazon Silk 3.17
0.048256284699817	Chrome Mobile 58.0.3007
5.31954573690923	Samsung Browser 5.2
0.8884833594731	Google Chrome 13.0
6.06609884726523	Safari 8.0.7
0.0340632597881061	MIUI Browser 8.5.10
1.13828059791921	Safari 4.0
0.204379558728637	MIUI Browser 8.2.14
0.0681265195762122	Microsoft Internet Explorer 5.0
0.139091644134767	UC Browser 2.8.7
0.06528791459387	Safari 8.4
0.0681265195762122	Amazon Silk 3.2
0.06528791459387	Samsung Browser 55.0.2883
0.0567720996468435	Mozilla Firefox 2.0.0.2
0.0141930249117109	Opera Mini 7.0.31782/37
0.0766423345232387	Yandex.Browser 16.6.1
0.00567720996468435	Netscape Navigator 4.5
0.0312246548057639	Opera Mini 20.1.2254/58
0.122060014240713	Safari 6.0.2
0.0738037295408965	Opera Mini 7.5.35721/62
0.0397404697527904	Opera Mini 4.5.40380/61
0.0567720996468435	Opera Mini 7.5.35721/58
0.0596107046291857	Chrome Mobile 51.0.2684
0.0681265195762122	Opera Mobile 28.0.1764
0.00851581494702652	Safari 1.0
0.0965125693996339	Puffin 6.0.3
0.0738037295408965	OneBrowser 4.2.0
0.0198702348763952	Opera Mini 7.5.35263/60
0.0312246548057639	Opera Mini 6.1.27412/62
0.0113544199293687	UC Browser 2.8.6
0.0425790747351326	UC Browser 9.9.6
0.0113544199293687	Opera Mini 10.0.1884/63
0.00851581494702652	Opera Mini 7.0.30567/62
0.00283860498234217	Opera Mini 7.0.29474/64
0.00567720996468435	Opera Mini 6.5.28404/64
0.00567720996468435	Netscape Navigator 6.2
0.0369018647704483	Dolphin 3.0
0.00283860498234217	Opera Mini 4.2.20464/65
0.00283860498234217	UC Browser 10.3.5
0.0312246548057639	UC Browser 9.9.4
0.00283860498234217	Opera Mini 4.2.14004/64
0.00851581494702652	Opera Mini 8.0.1674/37
0.00283860498234217	Opera Mini 6.5.27452/60
0.00283860498234217	Opera 7.0
0.00283860498234217	Chrome Mobile 57.0.2986
0.00283860498234217	Amazon Silk 59.2.2
0.00567720996468435	UC Browser 7.7.1
0.00283860498234217	Edge 13.10581
0.00567720996468435	Opera Mini 17.0.2211/63
0.00283860498234217	Opera Mini 7.6.88806/37
0.0936739644172917	Opera Mini 7.1.32448/37
56.7976470916845	Samsung Browser 3.3
0.0283860498234217	UC Browser 10.5.5
331.787504756083	Maxthon Browser
64.6009721881432	Chrome Mobile 30.0.0
12.0527167550249	UC Browser 11.1.0
300.985802092688	Google Chrome 48.0
0.124898619223056	UC Browser 10.6.1
0.0510948896821591	Opera Mini 24.0.2254/64
0.0709651245585543	Edge 15.15025
0.564882391486092	Mozilla (Gecko) 1.8
0.43146795731601	UC Browser 10.5.0
0.0141930249117109	Safari 5.0.3
1.27169503208929	Mobile Safari 4.0.4
0.0425790747351326	UC Browser 8.6.0
0.0369018647704483	UC Browser 9.9.8
0.0794809395055809	Edge 15.15213
0.0198702348763952	Opera Mini 4.2.23453/37
0.017031629894053	Google Chrome 2.0
0.360502832757456	Opera Mini 21.0.2254/58
0.082319544487923	Opera Mini 8.0.1807/58
0.0255474448410796	Opera Mini 4.5.33867/59
0.0141930249117109	Nokia S60 Browser 5.0
0.124898619223056	Safari 4.0.2
0.00283860498234217	Dolphin
0.0851581494702652	Opera Mini 8.0.40326/37
0.0141930249117109	Opera Mini 7.5.32193/58
0.141930249117109	Konqueror (unknown version)
0.241281423499085	Yandex.Browser 17.1.1
0.0113544199293687	Internet Explorer Mobile
0.00567720996468435	Opera Mini 7.6.40125/65
0.0227088398587374	Opera Mini 15.0.2125/65
0.0425790747351326	Chrome Mobile 51.0.2674
0.00283860498234217	Chrome Mobile 50.0.2623
0.00283860498234217	Opera Mini 7.5.33325/60
0.00283860498234217	Yandex.Browser 17.4.1
0.0425790747351326	Opera Mini 7.1.33886/37
0.00283860498234217	Opera Mini 7.6.40251/59
0.00283860498234217	Opera Mini 19.0.2254/63
0.00851581494702652	webOS Browser 234.83
0.00567720996468435	Safari 1.0.3
0.00567720996468435	Chrome Mobile 55.0.2857
0.00567720996468435	Opera Mini 7.0.29952/63
0.0340632597881061	MQQ Browser 3.7
0.00283860498234217	Opera Mini 7.0.29993/64
0.00283860498234217	Chrome Mobile 52.0.2723
0.00567720996468435	Safari 2.0.3
0.0113544199293687	Opera Mini 7.6.88806/62
0.00283860498234217	Chrome Mobile 48.0.2560
0.00283860498234217	Opera Mini 8.0.40326/62
0.00567720996468435	Puffin 4.7.1
0.00283860498234217	Nokia S60 Browser 7.2.3
0.00567720996468435	Opera Mini 7.0.29737/58
0.00567720996468435	Opera Mini 4.1.13572/64
0.00283860498234217	Cyberdog 2.0
0.00283860498234217	Opera Mini 7.6.40251/58
62.401053326828	Google Chrome 39.0
1408.49876060829	Google Chrome (unknown version)
31.0401454819117	Chrome Mobile 33.0.0
1.87631789332818	Opera Mini 14.0.0
0.17031629894053	UC Browser 10.0.1
1.4334955160828	Opera Mini 4.5.40312/37
14.8969989473317	UC Browser 9.9.5
0.0397404697527904	Opera Mini 7.0.29952/37
0.0397404697527904	Opera Mini 7.5.35721/65
0.0255474448410796	Yandex.Browser 15.12.2
0.840227074773283	Opera Mobile 36.2.2126
0.581914021380146	Google Chrome 5.0
0.58759123134483	UC Browser 2.9.5
0.00567720996468435	Chrome Mobile 55.0.2851
0.755068925303018	UC Browser 10.9.17
0.198702348763952	Yandex.Browser 15.4.2272
0.0227088398587374	Chrome Mobile 60.0.3109
0.113544199293687	Opera Mini 12.0.1987/60
0.0397404697527904	Opera Mini 8.0.35158/37
0.0993511743819761	Amazon Silk 4.0
0.141930249117109	MIUI Browser 8.5.11
0.0141930249117109	Opera Mini 4.1.13907/58
0.06528791459387	Opera Mini 8.0.1807/59
0.00283860498234217	Opera Mini 7.0.32796/62
0.00567720996468435	Opera Mini 7.5.35613/60
0.00851581494702652	UC Browser 2.0
0.0227088398587374	Opera Mini 23.0.2254/59
0.00283860498234217	MQQ Browser 5.1
0.110705594311345	Firefox
0.0113544199293687	Opera Mini 7.5.33135/60
0.0227088398587374	Opera Mini 7.5.35724/37
0.00851581494702652	Chrome Mobile 54.0.2811
0.0539334946645013	Opera Mini 4.5.40380/63
0.00851581494702652	Opera Mini 11.0.1912/65
0.00567720996468435	Opera 9.0
0.00567720996468435	Chrome Mobile 58.0.3008
0.06528791459387	Chrome Mobile 59.0.3056
0.00283860498234217	UC Browser 9.6.3
0.00283860498234217	Amazon Silk 3.33
0.00851581494702652	Opera Mini 9.1.0/60
0.00567720996468435	Opera Mini 7.1.34814/37
0.0113544199293687	Opera Mini 7.6.35766/60
0.0283860498234217	Opera Mini 9.0.1829/61
0.00283860498234217	Chrome Mobile 48.0.2531
0.0283860498234217	Firefox 27.0
0.00283860498234217	Opera Mini 4.1.13907/57
0.00851581494702652	Opera Mini 12.0.1987/55
0.00283860498234217	Opera Mini 4.1.11355/62
0.00283860498234217	Opera Mini 7.5.33389/59
0.00283860498234217	Opera Mini 7.5.35724/65
0.0141930249117109	Opera Mini 7.0.29737/37
0.00567720996468435	Opera Mini 4.1.15082/59
0.0113544199293687	Opera Mini 7.5.33474/63
0.00851581494702652	Chrome Mobile 56.0.2909
0.00283860498234217	Opera Mini 4.4.29060/60
0.00283860498234217	Opera Mini 7.5.35602/61
0.017031629894053	Chrome Mobile 56.0.2917
0.00567720996468435	Chrome Mobile 54.0.2798
0.0113544199293687	Chrome Mobile 57.0.2985
0.00283860498234217	Obigo Q7.3
0.00283860498234217	Chrome Mobile 54.0.2825
0.00283860498234217	Chrome Mobile 49.0.2619
0.00283860498234217	Opera Mini 18.0.2254/65
20.0433897803181	Google Chrome 28.0
23.5774529833341	Chrome Mobile 39.0.0
609.664223687523	Microsoft Internet Explorer 10
0.337793992898719	Chrome Mobile 19.0.1084
1525.13136212277	Mozilla Firefox 49.0
9.62287089013997	Google Chrome 11.0
1.45052714597685	Google Chrome 10.0
2.40997563000851	Amazon Silk 56.2.4
47.7793990627835	Chrome Mobile 43.0.2357
18.0733979225726	Chrome Mobile 59.0.3071
0.510948896821591	Chrome Mobile 60.0.3112
0.593268441309514	Safari 4.1.3
0.181670718869899	Opera Mini 22.0.2254/57
0.593268441309514	Opera Mini 8.0.35626/37
0.0510948896821591	Opera Mini 4.1.15082/57
0.116382804276029	Microsoft MSN Explorer 9.0
0.0794809395055809	Opera Mini 6.5.27431/37
0.0198702348763952	Chrome Mobile 55.0.2863
0.36618004272214	Google Chrome 3.0
0.579075416397803	Opera Mobile 42.6.2246
0.136253039152424	Opera Mini 20.0.2254/60
0.0227088398587374	Amazon Silk 48.1.51
0.26115165837548	UC Browser 10.4.0
0.309407943075297	MIUI Browser 8.7.1
0.0255474448410796	Edge 14.14936
0.0851581494702652	Opera Mini 18.0.2254/61
0.505271686856907	BlackBerry Browser 1.0.7
0.00283860498234217	Opera Mini 7.5.33391/60
0.0596107046291857	Opera Mini 22.0.2254/63
0.315085153039981	Safari 7.0
0.175993508905215	Opera Mini 20.0.2254/58
0.0312246548057639	Opera Mini 14.0.2065/58
0.0879967544526074	Opera Mini 7.6.40234/63
0.0369018647704483	Amazon Silk 54.1.112
0.0567720996468435	Opera Mini 7.5.35721/64
0.0113544199293687	Opera Mini 4.2.13221/37
0.0567720996468435	Opera Mini 21.0.2254/64
0.0681265195762122	Safari 6.1
0.0255474448410796	Opera Mini 7.1.32444/59
0.00283860498234217	Opera Mini 7.1.33553/57
0.00283860498234217	Opera Mini 5.0.15650/37
0.048256284699817	Chrome Mobile 56.0.2895
0.0255474448410796	Opera Mini 7.5.33942/60
0.00851581494702652	Netscape Navigator 4.6
0.00283860498234217	Opera Mini 5.0.18741/65
0.00567720996468435	Opera Mini 7.5.33286/63
0.00567720996468435	Netscape Navigator 7.0
0.00283860498234217	Opera Mini 4.2.14951/37
0.0113544199293687	UC Browser 7.9.1
0.00283860498234217	Opera Mini 7.0.29950/57
0.00283860498234217	Chrome Mobile 59.0.3032
0.0312246548057639	Edge 15.15047
0.00283860498234217	Opera Mini 7.5.33942/62
0.00283860498234217	Opera Mini 4.2.23453/63
0.00283860498234217	Opera Mini 14.0.2065/65
8.5413623918676	Chrome Mobile 36.0.1985
940.480925539644	Mozilla Firefox 48.0
15.8337385915046	Chrome Mobile 18.0.1025
4897.89083701718	Google Chrome 58.0
0.0425790747351326	Opera Mini 4.5.40380/64
1.3057582918774	Chrome Mobile 41.0.2272
0.0709651245585543	Opera Mini 25.0.2254/64
0.36618004272214	Opera Mini 7.5.35613/37
0.110705594311345	Opera Mini 7.5.31657/37
0.0454176797174748	Opera Mini 7.0.29759/37
0.0851581494702652	UC Browser 9.3.0
2.07502024209213	UC Browser 2.9.6
0.400243302510247	Opera Mini 8.0.35667/37
0.0255474448410796	Mozilla Firefox 3.8
0.00283860498234217	Opera Mini 6.5.27510/37
0.0454176797174748	Opera Mini 7.5.34817/37
0.0198702348763952	Chrome Mobile 55.0.2882
0.00567720996468435	Chrome Mobile 55.0.2867
0.0425790747351326	Opera Mini 4.3.24405/37
0.00567720996468435	Opera Mini 7.5.33325/37
0.00283860498234217	UC Browser 10.2.5
0.0141930249117109	Opera Mini 7.0.29759/60
0.184509323852241	Firefox 7.2
0.0312246548057639	Opera Mini 8.0.35626/61
0.00851581494702652	Opera Mini 6.5.27431/63
0.116382804276029	Opera Mini 11.0.1912/58
0.00567720996468435	Opera Mini 4.2.18887/58
0.048256284699817	Opera Mini 24.0.2254/63
0.00567720996468435	Opera Mini 7.0.32026/64
0.0312246548057639	Opera Mini 7.6.40234/65
0.00851581494702652	Opera Mini 7.5.35702/64
0.10502838434666	Opera Mini 4.5.40380/60
0.0851581494702652	Opera Mini 7.5.33474/57
0.00567720996468435	Opera Mini 8.0.35674/60
0.048256284699817	Mozilla (Gecko) 1.7
0.0141930249117109	Firefox 1.0
0.00851581494702652	Opera Mini 8.0.35659/64
0.0255474448410796	Opera Mini 14.0.2065/57
0.00851581494702652	Opera Mini 7.6.35843/57
0.0113544199293687	Opera Mini 8.0.35659/63
0.00283860498234217	Opera Mini 7.0.32026/63
0.017031629894053	Chrome Mobile 53.0.2774
0.00283860498234217	Opera Mini 7.0.29737/63
0.00851581494702652	Opera Mini 8.0.40336/37
0.00851581494702652	Safari 6.2.5
0.00283860498234217	Opera Mini 8.0.35180/60
0.00283860498234217	Chrome Mobile 54.0.2807
0.00283860498234217	NetFront 3.5
0.00283860498234217	Mozilla Firefox 2.0.0.9
0.00283860498234217	Opera Mini 4.2.13918/61
0.00283860498234217	Opera Mini 8.0.40356/62
0.0198702348763952	Opera Mini 21.0.2254/55
0.00851581494702652	Opera Mini 7.0.32796/37
0.00283860498234217	Opera Mini 7.0.29952/60
0.00283860498234217	Mobile Safari 3.0
0.0113544199293687	Opera Mini 7.5.33135/57
0.00851581494702652	Opera Mini 7.0.28879/65
0.00283860498234217	Firefox 3.5
0.00567720996468435	MIUI Browser 8.0.2
0.00851581494702652	Opera Mini 4.0.8993/58
0.00851581494702652	Opera Mini 4.3.24214/37
251.917676367921	Chrome Mobile 52.0.2743
148.302917302467	Google Chrome 37.0
0.292376313181244	Yandex.Browser 16.7.0
57.6946462661047	Mozilla Firefox 39.0
0.193025138799268	Nokia S40 Browser
0.530819131697987	Nokia Browser 8.5.0
0.36618004272214	Opera Mini 7.6.40077/37
21.2725057376722	UC Browser 11.2.0
3.23317107488774	Mozilla Firefox 18.0
0.00567720996468435	Chrome Mobile 58.0.3020
0.167477693958188	Netscape Navigator 2.0
7.75790741674116	Mozilla Firefox 3.0
0.00567720996468435	Chrome Mobile 58.0.2997
0.00567720996468435	Chrome Mobile 55.0.2871
0.10502838434666	Opera Mini 7.1.33553/37
0.0198702348763952	Opera Mini 6.5.27452/37
0.218572583640347	UC Browser 9.1.0
0.0113544199293687	UC Browser 8.4.1
0.241281423499085	Opera Mini 7.5.33474/37
0.06528791459387	Opera Mobile 24.0.1565
0.00283860498234217	Chrome Mobile 60.0.3089
0.017031629894053	Chrome Mobile 54.0.2839
0.00283860498234217	UC Browser 8.8.3
0.0113544199293687	Opera Mini 7.5.33942/64
0.00567720996468435	Opera Mini 4.5.40301/65
0.00851581494702652	Opera Mini 4.2.22714/37
0.0283860498234217	Opera Mini 12.0.1987/62
0.00851581494702652	Opera Mini 7.0.32026/58
0.00283860498234217	Opera Mini 8.0.35763/62
0.00567720996468435	Chrome Mobile 35.0.0
0.00283860498234217	Netscape Navigator 4.5 beta 1
0.0312246548057639	Opera Mini 7.5.32193/60
0.0227088398587374	Puffin 6.0.7
0.00283860498234217	Opera Mini 7.0.29703/61
0.00283860498234217	Opera Mini 20.0.2254/55
0.00283860498234217	Opera Mini 7.0.29530/37
0.00283860498234217	Opera Mini 7.0.31782/60
0.00851581494702652	Firefox 15.0.1
0.00283860498234217	MIUI Browser 8.2.12
0.00283860498234217	Opera Mini 4.4/59.323
64.1354409710391	Microsoft Edge 12
5.83049463373083	Mozilla Firefox 10.0
0.232765608552058	MIUI Browser 8.2.4
651.52229275714	Microsoft Edge 13
35.0397399020318	Mozilla Firefox 34.0
0.908353594349496	Opera Mini 13.0.2036/37
1.50729924562369	UC Browser 11.5.3
2.49513377947877	Mozilla Firefox 14.0
0.00851581494702652	Opera Mini 4.1.15082/65
0.0113544199293687	UC Browser 7.9.3
0.255474448410796	Nokia Browser 1.2.0
0.309407943075297	Opera Mini 6.1.27412/37
1.26317921714227	Amazon Silk 53.3.5
0.232765608552058	UC Browser 10.9.7
0.258313053393138	UC Browser 10.6.5
0.434306562298353	Android Browser 4.2.1
0.0596107046291857	UC Browser 10.7.1
0.0340632597881061	Opera Mini 19.0.2254/60
0.0113544199293687	Opera Mini 7.5.34817/58
0.0766423345232387	MIUI Browser 8.4.0
0.139091644134767	Safari 2.0.4
0.06528791459387	Opera Mobile 37.1.2192
0.00283860498234217	Opera Mini 4.3.24490/37
0.0255474448410796	Opera Mini 6.1.27412/60
0.0340632597881061	Opera Mini 7.5.33474/60
0.017031629894053	Opera Mobile 37.22.2192
0.122060014240713	Opera Mobile 36.1.2126
0.0340632597881061	UC Browser 3.1.0
0.048256284699817	Opera Mini 4.4.32420/37
0.102189779364318	Chrome Mobile 59.0.3050
0.00567720996468435	Opera Mini 8.0.40325/65
0.0227088398587374	Opera Mini 7.6.35843/62
0.00283860498234217	Opera Mini 9.1.0/62
0.00567720996468435	Opera Mini 9.0.1829/65
0.00851581494702652	Edge 12.10166
0.00567720996468435	Opera Mini 4.2.18149/37
0.00283860498234217	Opera Mini 4.0.12814/37
0.0397404697527904	Opera Mini 7.5.35199/57
0.00283860498234217	Opera Mini 7.1.33886/60
0.0198702348763952	Opera Mini 7.5.33474/59
0.00283860498234217	Opera Mini 7.0.29950/60
0.00567720996468435	Edge 15.15226
0.00567720996468435	Amazon Silk 45.1.102
0.00283860498234217	Opera Mini 5.1.22460/37
0.00283860498234217	Amazon Silk 3.68
0.00283860498234217	Konqueror 2.2.2