43.237631091036	Windows Phone 8.1
56.8004856966669	Mobile iOS 10.0.1
0.689781010709148	Windows Phone 7.5
0.828872654843915	OS X 10.4
0.0198702348763952	Android 3.2.1
0.00567720996468435	iOS 8
0.00567720996468435	Android 10.2.1
0.00851581494702652	Android 5.6.4
0.519464711768618	Linux 14.04
279.886451258938	Mobile iOS 10.3.1
0.0766423345232387	Android 2.3
0.0340632597881061	Android 4.5.3
0.00283860498234217	Android 2.3.9
0.00567720996468435	Bada 1.2
448.246951366635	OS X 10.10
1.55555553032351	Mobile iOS 7.0.6
7.6727492672709	Mobile iOS 7.1.1
0.448499587210063	Mobile iOS 4.3.2
0.360502832757456	Tizen
1.69748577944062	Mobile iOS 7.0.3
0.919708014278864	Windows Phone 7.0
0.00567720996468435	Bada 2
0.00851581494702652	Android 5.0.0
0.00851581494702652	Android 1.6
0.00567720996468435	Android 3.1.0
77.4768843880473	Android 4.3
2.62003239870183	Android 2.3.3
0.879967544526074	Other
14.6330086839739	Android 7.1.2
0.414436327421957	OS/2
0.00851581494702652	iOS 9.1.1
0.00567720996468435	Android 88.0.1
1380.98416251445	Android 6.0.1
26.3990263357822	Windows Phone 10.0
2.56326029905498	OS X 10.10.0
19.2485803852623	OS X 10.11.1
329.817512898337	Android 7.0
4.29764794326605	Mobile iOS 5.1
10.4290347051251	OS X 10.8
0.150446064064135	Symbian
0.0255474448410796	webOS 2.2.4
0.00567720996468435	Android 5.1.2
446.898614000022	Android 4.4.2
31.0912403715938	OS X 10.6.8
0.397404697527904	Symbian 9.2
0.263990263357822	RIM 5.0.0
0.0397404697527904	Symbian 8.1a
0.00283860498234217	Maemo 5
0.00283860498234217	Android 8.1.1
8.53000797193823	Mobile iOS 8.2
32.2380367844601	Mobile iOS 9.3.1
8.47039726730905	Android 4.0.3
2.79602590760704	Android 2.3.5
0.471208427068801	Nokia OS Series 40
1.98702348763952	Mobile iOS 7.0.2
0.244120028481427	Mobile Android 4.0
693.232754367676	OS X 10.12
0.349148412828087	RIM 6.0.0
0.0879967544526074	Windows Phone 8.10
0.00283860498234217	L4
0.00851581494702652	OS X 10.5.3
0.00283860498234217	iOS 4.0.1
205.696671440443	Android 4.4.4
291.544601921418	OS X 10.1
30.8499589480947	Chrome OS
21.2128950330431	Mobile iOS 9.2
10.485806804772	Mobile iOS 6.0
455.729514100089	Mobile iOS 10.2.1
0.164639088975846	Android 6.1
0.0681265195762122	Windows Phone 7
0.00283860498234217	RIM 7.0
617.300071090023	
37.7591234751156	Mobile iOS 9.2.1
7.87145161603485	Mobile iOS 9.0.2
0.00283860498234217	Windows Phone 7.10
0.272506078304849	OS X 10.13
0.0283860498234217	Android 4.0.1
550.89374613311	Android 5.1.1
103.955391663335	Android 5.0.1
17.4063257517222	Android 4.0.4
30.9833733822648	OS X 10.9
1.37104620647127	OS X 10.5
0.00851581494702652	Windows Phone 8.0.10532
0.00851581494702652	Nucleus V1.11.19
0.0454176797174748	Android 8.0
0.0113544199293687	Android 4.0.2
0.0369018647704483	Windows Phone 8.10.15137
0.0283860498234217	Mobile iOS 4.1
0.00851581494702652	Android 5.3
0.00567720996468435	Android 7.0.1
0.00851581494702652	Windows Mobile 6.5
0.00283860498234217	Windows Phone 8.10.14226
0.00851581494702652	Adobe AIR
24.4261958730544	Mobile iOS 7.1.2
269.9257863759	Mobile iOS 10.2
0.403081907492589	Tizen 2.3
176.20640427889	Mobile iOS 10.3.2
0.0227088398587374	Firefox OS 2
0.00567720996468435	Android 11.39.56
17804.553644695	Windows 10
2.30494724566185	Macintosh
0.224249793605032	Android 4.1
0.0198702348763952	Bada
0.0709651245585543	Windows RT NT 6.2
0.00283860498234217	iOS 2.2.1
13.0604215237563	Android 4.2.1
0.386050277598536	Symbian 3
0.0283860498234217	Android 4.4.9
252.743710417782	Android 5.0.2
15.6094887978996	OS X 10.10.1
0.39172748756322	Windows 98
1.05879965841363	Mobile iOS 6.0.2
0.0141930249117109	Symbian 5.2
0.0397404697527904	Windows 7.5
0.00567720996468435	Android 4.1.4
50.737225454384	OS X 10.11.3
305.462282149841	Windows Vista
0.017031629894053	Bada 1.0
0.0283860498234217	Android 0.5
0.303730733110613	Android 3.2
0.312246548057639	Mobile iOS 6.1.4
0.00567720996468435	Mobile iOS 8.0.1
0.0283860498234217	Nokia OS Series 40 3rd Edition Feature Pack 2
0.0255474448410796	Android 2.3.2
0.00567720996468435	Windows Phone 8.10.12397
0.00283860498234217	Windows 9x/NT
3.74128136672699	OS X 10.5.8
0.530819131697987	MeeGo 1.2
1.14111920290155	Mobile iOS 6.1
0.0397404697527904	Asha platform Series 40
57762.6166624069	Windows 7
21.5875908907122	Mobile iOS 8.4
228.519055498474	Mobile iOS 10.0.2
2.76196264781894	Mobile iOS 7.0
0.826034049861572	Windows 3.x
0.380373067633851	Mobile iOS 4.0
0.164639088975846	LG proprietary
0.017031629894053	RIM 5.0
0.0397404697527904	Android 2.1
0.153284669046477	Windows 95
0.0141930249117109	Windows Phone 8
0.00567720996468435	Android 5.2.2
17.0628545488588	Mobile iOS 8.4.1
0.048256284699817	Windows Phone 8.10.14219
0.0141930249117109	Windows ME
0.00283860498234217	Android 4.1.9
0.0141930249117109	Android 5.0.9
0.00283860498234217	Android 6.2.2
107.449714396598	Mobile iOS 9.3.4
229.768041690705	Mobile iOS 9.3.2
18.4509323852241	Mobile iOS 10.3
1.88767231325755	Mobile iOS 4.3.3
0.45701540215709	iOS 10
0.2356042135344	iOS 7
0.0283860498234217	iOS 9
69.4833727577717	Android 4.1.2
0.275344683287191	Android 2.2.1
13.1938359579264	OS X 10.10.2
0.411597722439615	Android 4.3.1
0.0141930249117109	Bada 1
21.5137871611713	Android 4.1.1
5.61192205009048	Mobile iOS 8.1.1
0.164639088975846	Mobile iOS 4.2.1
0.00851581494702652	Android 8.0.0
7.84590417119377	OS X 10.11.0
17.3325220221813	Nokia OS
11.5786697229737	Mobile iOS 7.0.4
0.0255474448410796	PlayStation Vita OS 1.0
0.0965125693996339	RIM 7.0.0
0.178832113887557	Sailfish 1.0
0.0283860498234217	Firefox OS
0.0567720996468435	Other 1.0
0.00851581494702652	Windows Phone 8.10.14192
0.0312246548057639	iOS 4.3.1
0.00567720996468435	iOS 10.9.5
0.017031629894053	iOS 4.2.10
4264.93585944954	Windows 8.1
55.4351167001603	Mobile iOS 8.0
2.86982963714794	Mobile iOS 6.0.1
0.2356042135344	Symbian 9.1
0.048256284699817	Android 4.2.9
0.00283860498234217	Windows Mobile
12.9326842995509	Mobile iOS 8.1.2
6.43227888998737	Mobile iOS 10.0
0.434306562298353	Asha platform
0.0908353594349496	Android 3.1
0.187347928834583	OS X 10.7.1
0.00283860498234217	Firefox OS 1.3
167.784263296281	Android 5.0
0.377534462651509	Macintosh (iPhone)
0.564882391486092	SunOS
0.0113544199293687	Windows Phone 8.10.15148
0.0198702348763952	Nintendo 3DS OS
0.00567720996468435	OS X 10.7.9
23.7165446274689	OS X 10.7.5
10.0287914026149	Mobile iOS 8.1.3
55.117192942138	Mobile iOS 9.1
3.53122459803366	Mobile iOS 9.0
267.686127044832	Mobile iOS 9.3.5
0.0198702348763952	Android 5.2
0.283860498234217	Android 2.2.2
0.0113544199293687	Android 4.4.1
0.505271686856907	RIM 1.0
0.0539334946645013	iOS 3.2.2
0.06528791459387	Android 5.1.0
0.0539334946645013	Windows Mobile 10.0
0.0312246548057639	Sony Ericsson proprietary
0.00283860498234217	Android 5
0.00567720996468435	OS X 11
0.167477693958188	Tizen 2.4.0
0.00283860498234217	Android 3.0.1
0.00851581494702652	Android 3.0
248.139493136423	Android 5.1
0.854420099684994	Mobile iOS 6.1.6
0.0312246548057639	iOS 10.3
0.252635843428453	PlayStation 4 OS
0.0425790747351326	Mobile iOS 6.1.1
0.181670718869899	Windows 8.0
0.0141930249117109	Android 4.5.2
0.00283860498234217	Android 6.0.2
27.9999995458232	Mobile iOS 8.3
2.42416865492022	Android 2.3.4
7.38037295408965	Mobile iOS 6.1.3
1.98986209262186	Android 4.4
190.6889668988	OS X 10.12.1
0.00283860498234217	Brew 3.1.5
0.0113544199293687	RIM 7.1
0.0227088398587374	Bada 2.0
0.00283860498234217	Mobile Nokia OS Series 40 3rd Edition Feature Pack 1
0.0141930249117109	Symbian 7.0
0.00283860498234217	OS X 10.5.2
0.00283860498234217	Android 4.4.2_KitKat
8.22060002886294	Android 4.4.3
4.54460657672982	Windows NT
0.0283860498234217	Windows Phone 10.0.14393
0.36618004272214	Mobile iOS 11.0
0.0709651245585543	Android 5.12
0.00283860498234217	Windows Phone 8.10.12393
0.00851581494702652	Android 4.5
0.00283860498234217	HotJava Browser (OS unavailable)
0.468369822086459	Symbian 9.4
17.761151374515	OS X 10.6
1.29440387194803	iOS 4
0.0738037295408965	Android 2.1-update1
0.0255474448410796	iOS 8.0.3
0.0113544199293687	OS X 10.6.5
0.00851581494702652	Android 4.3.0
0.383211672616193	Mobile iOS 4.3.5
4.40267632761271	Mobile iOS 7.1
0.760746135267703	Samsung proprietary
0.752230320320676	Media Center 2005
0.0283860498234217	Android 4.4.5
0.00283860498234217	iOS 9.4.1
0.0397404697527904	Nintendo Wii OS
0.0198702348763952	Windows Mobile 6.1
0.00283860498234217	Nokia OS Series 60
9.1601782780182	Mobile iOS 8.1
10.2558798012023	Windows RT NT 6.3
256.036492197299	Mobile iOS 10.1.1
1.91605836308097	FreeBSD
0.00283860498234217	Android 50
0.0141930249117109	OS X 10.5.4
0.15612327402882	Mobile iOS 4.3
0.0369018647704483	Windows RT NT 10.0
0.0198702348763952	iOS 4.2
0.00851581494702652	RIM 2.7
0.00283860498234217	Symbian UIQ3.0
1066.30492998694	OS X 10.11
420.950925856433	Android 6.0
10.6901863635006	Mobile iOS 5.1.1
0.505271686856907	Symbian 9.3
0.312246548057639	Android 2.2
7.07664222097904	Windows Phone 8.0
3.53122459803366	Mobile iOS 10.0.3
38.9371445427876	Android 7.1.1
0.0283860498234217	Samsung proprietary 1.0
0.127737224205398	OS X 10.6.0
0.00283860498234217	OSF/1
0.127737224205398	PlayStation 3 OS
0.00567720996468435	Nokia OS Series 40 5th Edition Feature Pack 1
4562.10941505094	Windows XP
764.12407519669	Windows 8
63.0369008428726	Windows Server 2003 and XP x64 Edition
2.53487424923156	OS X 10.8.4
1.1240875730075	Android 7.1
1.00486616374913	Mobile iOS 6.1.2
0.00851581494702652	iOS 6
0.00283860498234217	Android 4.5.1
0.00567720996468435	Firefox OS 2.0
9.86415231363905	RIM BB10
1.20356851251308	Mobile iOS 9.0.1
0.624493096115278	OS X 10.4.11
0.161800483993504	Android 7.0.99
0.00567720996468435	RIM 5.1.0
0.0255474448410796	Windows Phone 8.10.14234
0.00851581494702652	Android 2.3.1
0.00283860498234217	OS X 10.8.7
0.00283860498234217	Symbian S40
3110.40140940144	Linux
2.85563661223623	Mobile iOS 8.0.2
0.933901039190575	Mobile iOS 5.0.1
5.3309001568386	OS X 10.9.3
22.2802105064037	Mobile iOS 10.1
6.70478496829221	Android
0.00567720996468435	Symbian 9.5
0.00283860498234217	Android 3.4.3
161.272503466788	OS X 10.9.5
1.43917272604748	Mobile iOS 3.2
0.124898619223056	Mobile Linux
0.00851581494702652	webOS 3.0.5
0.00283860498234217	OS X 10.5.1
0.00283860498234217	Bada 1.1
0.00283860498234217	Windows Phone 10.0.13080
11.2579073599691	OS X 10.7
1.08434710325471	Tizen 2.4
125.13422343659	Android 4.2.2
9.13179222819477	Android 2.3.6
0.75790753028536	Mobile iOS 5.0
0.485401451980512	Android 2.3.7
9.83576626381563	OS X 10.9.4
0.141930249117109	Android 6.0.99
0.00283860498234217	iOS 3.1.3
0.0198702348763952	iOS 11.0
0.017031629894053	Mobile iOS 3.0
74.0677198042543	Mobile iOS 9.3.3
9.17153269794756	Mobile iOS 9.3
24.5340628623834	OS X 10.8.5
0.2356042135344	Nokia OS Series 40 3rd Edition
1.14679641286624	RIM 7.1.0
1.12976478297219	Android 4.2
5.458637381044	Windows 2000/NT 5
1.34266015664785	Mobile iOS 10.3.3
0.417274932404299	Mobile iOS 7.0.5
0.00567720996468435	iOS 3.2.1
0.00567720996468435	Mobile iOS 7.0.1